mtllib ./curvedTube_0_0.mtl
g curvedTube
v -1.479088 -2.852034 9.891012
v -1.476928 -2.704091 9.89402
v -1.419526 -2.702785 9.893963
v -1.420681 -2.852035 9.891011
v -1.529668 -2.852034 9.920217
v -1.526042 -2.705214 9.922451
v -1.558871 -2.852034 9.970797
v -1.554335 -2.705859 9.971622
v -1.368502 -2.701644 9.922338
v -1.370098 -2.852036 9.920214
v -1.338152 -2.700981 9.971565
v -1.340894 -2.852036 9.970797
v -1.338151 -2.700981 10.02843
v -1.340894 -2.852036 10.0292
v -1.368503 -2.701644 10.07766
v -1.370099 -2.852036 10.07979
v -1.419526 -2.702785 10.10604
v -1.420681 -2.852035 10.10899
v -1.476928 -2.704091 10.10598
v -1.479088 -2.852034 10.10899
v -1.526042 -2.705214 10.07755
v -1.529668 -2.852034 10.07978
v -1.554335 -2.705859 10.02838
v -1.558871 -2.852034 10.0292
v -1.554335 -2.705859 9.971622
v -1.558871 -2.852034 9.970797
v -1.57882 -2.650724 9.971633
v -1.57882 -2.650724 10.02837
v -1.629739 -2.614846 9.971614
v -1.629739 -2.614846 10.02839
v -1.557721 -2.633661 10.07754
v -1.622948 -2.587332 10.07758
v -1.567675 -2.556068 10.10603
v -1.611162 -2.539609 10.10606
v -1.516369 -2.600388 10.106
v -1.483751 -2.659428 10.10598
v -1.539749 -2.506159 10.10612
v -1.597154 -2.48439 10.10616
v -1.490541 -2.541577 10.1061
v -1.452522 -2.588339 10.10609
v -1.428347 -2.643274 10.10607
v -1.514076 -2.462867 10.07774
v -1.584198 -2.436477 10.07778
v -1.453794 -2.505852 10.07773
v -1.407474 -2.5626 10.07772
v -1.378447 -2.629263 10.07771
v -1.49818 -2.437844 10.02847
v -1.57615 -2.408779 10.02848
v -1.431106 -2.485203 10.02846
v -1.37986 -2.547723 10.02846
v -1.348239 -2.621164 10.02845
v -1.498179 -2.437844 9.971533
v -1.576149 -2.408779 9.971519
v -1.431105 -2.485203 9.971537
v -1.37986 -2.547723 9.971541
v -1.348239 -2.621165 9.971546
v -1.514076 -2.462866 9.922257
v -1.584198 -2.436477 9.922224
v -1.453794 -2.505852 9.92227
v -1.407474 -2.5626 9.922281
v -1.378447 -2.629262 9.922294
v -1.53975 -2.506159 9.89388
v -1.597153 -2.48439 9.893839
v -1.567675 -2.556068 9.893973
v -1.611162 -2.539609 9.893937
v -1.516369 -2.600388 9.893998
v -1.490542 -2.541577 9.893896
v -1.452523 -2.588339 9.893912
v -1.483752 -2.659428 9.894022
v -1.428347 -2.643274 9.893929
v -1.557721 -2.633661 9.922463
v -1.622948 -2.587332 9.922417
v -1.57882 -2.650724 9.971633
v -1.629739 -2.614846 9.971614
v -1.554335 -2.705859 9.971622
v -1.704261 -2.538311 9.880371
v -1.704257 -2.474202 9.880348
v -1.801257 -2.473426 9.877607
v -1.801257 -2.539016 9.877607
v -1.704202 -2.593818 9.912432
v -1.801257 -2.595818 9.910402
v -1.801257 -2.416623 9.910402
v -1.70408 -2.418656 9.91239
v -1.801257 -2.383829 9.967205
v -1.703869 -2.386574 9.967928
v -1.801257 -2.383829 10.03279
v -1.703869 -2.386574 10.03207
v -1.801257 -2.416624 10.0896
v -1.70408 -2.418656 10.08761
v -1.801257 -2.473426 10.12239
v -1.704257 -2.474202 10.11965
v -1.801257 -2.539016 10.12239
v -1.704261 -2.538311 10.11963
v -1.801257 -2.595818 10.0896
v -1.704202 -2.593818 10.08757
v -1.801257 -2.628613 10.03279
v -1.704185 -2.625867 10.03205
v -1.801257 -2.628613 9.967205
v -1.704185 -2.625867 9.967947
v -1.801257 -2.595818 9.910402
v -1.704202 -2.593818 9.912432
v -1.486691 -2.706045 9.860351
v -1.48673 -2.851116 9.862475
v -1.413028 -2.851116 9.862475
v -1.411642 -2.704195 9.860436
v -1.551039 -2.707668 9.897726
v -1.550552 -2.851117 9.899325
v -1.588281 -2.708609 9.962558
v -1.587401 -2.851117 9.96315
v -1.349187 -2.851115 9.899325
v -1.34442 -2.702619 9.897895
v -1.312318 -2.851115 9.963151
v -1.30387 -2.701724 9.962641
v -1.312318 -2.851115 10.03685
v -1.30387 -2.701724 10.03736
v -1.349188 -2.851115 10.10068
v -1.34442 -2.70262 10.10211
v -1.413029 -2.851116 10.13753
v -1.411642 -2.704195 10.13956
v -1.48673 -2.851116 10.13752
v -1.486691 -2.706045 10.13965
v -1.550552 -2.851117 10.10067
v -1.551039 -2.707668 10.10227
v -1.5874 -2.851117 10.03685
v -1.588281 -2.708609 10.03744
v -1.587401 -2.851117 9.96315
v -1.588281 -2.708609 9.962558
v -1.604364 -2.672952 10.03781
v -1.604364 -2.672952 9.96219
v -1.668581 -2.656779 10.04011
v -1.668581 -2.656779 9.959888
v -1.800393 -2.657236 9.959536
v -1.800393 -2.657236 10.04046
v -1.664113 -2.617221 10.10957
v -1.800393 -2.616772 10.11055
v -1.656186 -2.548769 10.14961
v -1.800393 -2.546685 10.15102
v -1.701075 -2.465134 10.15316
v -1.800393 -2.465756 10.15102
v -1.70056 -2.394069 10.1121
v -1.800393 -2.39567 10.11055
v -1.700011 -2.353056 10.04103
v -1.800393 -2.355206 10.04046
v -1.700011 -2.353056 9.958974
v -1.800393 -2.355206 9.959535
v -1.70056 -2.394069 9.887901
v -1.800393 -2.39567 9.889449
v -1.701076 -2.465133 9.846841
v -1.800393 -2.465756 9.848985
v -1.656187 -2.548769 9.850392
v -1.800393 -2.546685 9.848985
v -1.664113 -2.617221 9.890431
v -1.800393 -2.616772 9.889449
v -1.668581 -2.656779 9.959888
v -1.800393 -2.657236 9.959536
v -1.527721 -2.610946 9.859042
v -1.508575 -2.517525 9.85793
v -1.591829 -2.474523 9.85411
v -1.43284 -2.614042 9.86047
v -1.576276 -2.650192 9.89673
v -1.668581 -2.656779 9.959888
v -1.604364 -2.672952 9.96219
v -1.604364 -2.672952 9.96219
v -1.588281 -2.708609 9.962558
v -1.465905 -2.465222 9.896111
v -1.573196 -2.409014 9.893283
v -1.438489 -2.435081 9.962
v -1.561045 -2.371238 9.960955
v -1.438489 -2.43508 10.038
v -1.561046 -2.371238 10.03905
v -1.465905 -2.465222 10.10389
v -1.573196 -2.409014 10.10672
v -1.508575 -2.517526 10.14207
v -1.591829 -2.474523 10.14589
v -1.527721 -2.610946 10.14096
v -1.576276 -2.650192 10.10327
v -1.432841 -2.614042 10.13953
v -1.37005 -2.588357 10.10203
v -1.330726 -2.57357 10.03732
v -1.330726 -2.57357 9.962679
v -1.37005 -2.588356 9.89797
v -1.557721 -2.633661 9.922463
v -1.57882 -2.650724 9.971633
v -1.801257 -2.539016 9.877607
v -1.800393 -2.546685 9.848985
v -1.800393 -2.465756 9.848985
v -1.801257 -2.473426 9.877607
v -1.801257 -2.595818 9.910402
v -1.800393 -2.616772 9.889449
v -1.801257 -2.628613 9.967205
v -1.800393 -2.657236 9.959536
v -1.801257 -2.628613 10.03279
v -1.800393 -2.657236 10.04046
v -1.801257 -2.595818 10.0896
v -1.800393 -2.616772 10.11055
v -1.801257 -2.539016 10.12239
v -1.800393 -2.546685 10.15102
v -1.801257 -2.473426 10.12239
v -1.800393 -2.465756 10.15102
v -1.801257 -2.416624 10.0896
v -1.800393 -2.39567 10.11055
v -1.801257 -2.383829 10.03279
v -1.800393 -2.355206 10.04046
v -1.801257 -2.383829 9.967205
v -1.800393 -2.355206 9.959535
v -1.801257 -2.416623 9.910402
v -1.800393 -2.39567 9.889449
v -1.704202 -2.593818 9.912432
v -1.622948 -2.587332 9.922417
v -1.629739 -2.614846 9.971614
v -1.479088 -2.852034 9.891012
v -1.48673 -2.851116 9.862475
v -1.550552 -2.851117 9.899325
v -1.529668 -2.852034 9.920217
v -1.587401 -2.851117 9.96315
v -1.558871 -2.852034 9.970797
v -1.5874 -2.851117 10.03685
v -1.558871 -2.852034 10.0292
v -1.550552 -2.851117 10.10067
v -1.529668 -2.852034 10.07978
v -1.48673 -2.851116 10.13752
v -1.479088 -2.852034 10.10899
v -1.413029 -2.851116 10.13753
v -1.420681 -2.852035 10.10899
v -1.349188 -2.851115 10.10068
v -1.370099 -2.852036 10.07979
v -1.312318 -2.851115 10.03685
v -1.340894 -2.852036 10.0292
v -1.312318 -2.851115 9.963151
v -1.340894 -2.852036 9.970797
v -1.349187 -2.851115 9.899325
v -1.370098 -2.852036 9.920214
v -1.413028 -2.851116 9.862475
v -1.420681 -2.852035 9.891011
v -1.315852 -3.07 9.956738
v -1.335737 -3.07 9.91771
v -1.36671 -3.07 9.886738
v -1.405738 -3.07 9.866852
v -1.449 -3.07 9.86
v -1.492262 -3.07 9.866852
v -1.53129 -3.07 9.886738
v -1.562263 -3.07 9.91771
v -1.582148 -3.07 9.956738
v -1.589 -3.07 10
v -1.582148 -3.07 10.04326
v -1.562262 -3.07 10.08229
v -1.53129 -3.07 10.11326
v -1.492262 -3.07 10.13315
v -1.449 -3.07 10.14
v -1.405737 -3.07 10.13315
v -1.36671 -3.07 10.11326
v -1.335737 -3.07 10.08229
v -1.315852 -3.07 10.04326
v -1.309 -3.07 10
v -1.315852 -2.77 9.956738
v -1.335737 -2.77 9.91771
v -1.36671 -2.77 9.886738
v -1.405738 -2.77 9.866852
v -1.449 -2.77 9.86
v -1.492262 -2.77 9.866852
v -1.53129 -2.77 9.886738
v -1.562263 -2.77 9.91771
v -1.582148 -2.77 9.956738
v -1.589 -2.77 10
v -1.582148 -2.77 10.04326
v -1.562262 -2.77 10.08229
v -1.53129 -2.77 10.11326
v -1.492262 -2.77 10.13315
v -1.449 -2.77 10.14
v -1.405737 -2.77 10.13315
v -1.36671 -2.77 10.11326
v -1.335737 -2.77 10.08229
v -1.315852 -2.77 10.04326
v -1.309 -2.77 10
v -1.449 -3.07 10
v -1.449 -2.77 10
v -1.589 -3.07 10
v -1.589 -2.77 10
v -1.309 -3.07 10
v -1.309 -2.77 10
v -1.315852 -2.77 9.956738
v -1.315852 -3.07 9.956738
v -1.335737 -3.07 9.91771
v -1.315852 -3.07 9.956738
v -1.36671 -3.07 9.886738
v -1.405738 -3.07 9.866852
v -1.449 -3.07 9.86
v -1.492262 -3.07 9.866852
v -1.53129 -3.07 9.886738
v -1.562263 -3.07 9.91771
v -1.582148 -3.07 9.956738
v -1.589 -3.07 10
v -1.582148 -3.07 10.04326
v -1.562262 -3.07 10.08229
v -1.53129 -3.07 10.11326
v -1.492262 -3.07 10.13315
v -1.449 -3.07 10.14
v -1.405737 -3.07 10.13315
v -1.36671 -3.07 10.11326
v -1.335737 -3.07 10.08229
v -1.315852 -3.07 10.04326
v -1.309 -3.07 10
v -1.315852 -2.77 9.956738
v -1.335737 -2.77 9.91771
v -1.36671 -2.77 9.886738
v -1.405738 -2.77 9.866852
v -1.449 -2.77 9.86
v -1.492262 -2.77 9.866852
v -1.53129 -2.77 9.886738
v -1.562263 -2.77 9.91771
v -1.582148 -2.77 9.956738
v -1.589 -2.77 10
v -1.582148 -2.77 10.04326
v -1.562262 -2.77 10.08229
v -1.53129 -2.77 10.11326
v -1.492262 -2.77 10.13315
v -1.449 -2.77 10.14
v -1.405737 -2.77 10.13315
v -1.36671 -2.77 10.11326
v -1.335737 -2.77 10.08229
v -1.315852 -2.77 10.04326
v -1.309 -2.77 10

vn 0.2603128 -0.02320109 0.9652461
vn 0.2472106 0.006500268 0.9689403
vn -0.2611993 -0.02729996 0.9648988
vn -0.2549135 -0.01470079 0.9668523
vn 0.7077293 -0.02800115 0.7059292
vn 0.6701775 0.1101962 0.7339754
vn 0.9656167 -0.03110052 0.2581048
vn 0.9455634 0.1905926 0.2637901
vn -0.6961057 -0.0484004 0.7163059
vn -0.7026921 0.001699981 0.7114919
vn -0.9620632 -0.05419792 0.2673894
vn -0.9653926 0.01619987 0.2602978
vn -0.961352 -0.05330286 -0.2701149
vn -0.9645642 0.01169956 -0.2635905
vn -0.6971128 -0.04710086 -0.7154132
vn -0.7036898 -0.005099923 -0.7104897
vn -0.2627011 -0.02690007 -0.9645027
vn -0.2565912 -0.01729938 -0.9663657
vn 0.230794 0.02099947 -0.9727762
vn 0.260309 -0.02370085 -0.9652344
vn 0.6814752 0.1328952 -0.7196738
vn 0.707719 -0.02850076 -0.7059188
vn 0.9455234 0.1909047 -0.2637062
vn 0.9655576 -0.03139861 -0.2582884
vn 0.9455634 0.1905926 0.2637901
vn 0.9656167 -0.03110052 0.2581048
vn 0.746295 0.6123956 0.2607984
vn 0.7461135 0.612911 -0.2601046
vn 0.2153044 0.9382187 0.2709056
vn 0.2200084 0.9361357 -0.2743104
vn 0.5214176 0.4176141 -0.7441251
vn 0.1174972 0.6560856 -0.7454839
vn 0.1138006 0.1851014 -0.9761081
vn -0.02260006 0.2444966 -0.9693869
vn 0.1694912 0.1377931 -0.9758515
vn 0.1779037 0.04910111 -0.9828224
vn -0.1283013 -0.2406017 -0.9621071
vn -0.1189039 -0.2590077 -0.9585287
vn -0.1839082 -0.1963084 -0.9631414
vn -0.2277039 -0.1393021 -0.963715
vn -0.2571997 -0.07299978 -0.9635975
vn -0.3318974 -0.6252944 -0.7062942
vn -0.2046066 -0.6861212 -0.6981219
vn -0.4781178 -0.5117186 -0.7138264
vn -0.5934911 -0.3618942 -0.7188891
vn -0.6702071 -0.1867019 -0.7183076
vn -0.4522966 -0.852793 -0.2610981
vn -0.2561978 -0.9321917 -0.2556978
vn -0.6579099 -0.7039101 -0.2677042
vn -0.8225304 -0.4990182 -0.2728103
vn -0.9280335 -0.253309 -0.2731102
vn -0.452397 -0.8524942 0.2618981
vn -0.25751 -0.9319364 0.2553099
vn -0.6575695 -0.7039674 0.2683875
vn -0.8222315 -0.499619 0.2726101
vn -0.9282283 -0.2542077 0.271608
vn -0.3323052 -0.6255098 0.7059112
vn -0.2081961 -0.6857877 0.6973876
vn -0.4778941 -0.5123937 0.7134913
vn -0.5927794 -0.3628873 0.718975
vn -0.6692285 -0.187808 0.7189306
vn -0.1285956 -0.2409924 0.96197
vn -0.1248048 -0.2584106 0.9579395
vn 0.08459831 0.164896 0.9826765
vn -0.02059943 0.2277978 0.9734908
vn 0.1693948 0.1377954 0.975868
vn -0.1841005 -0.1968008 0.9630041
vn -0.2272924 -0.1395955 0.9637694
vn 0.2045939 0.07369763 0.976069
vn -0.2560897 -0.07339712 0.9638625
vn 0.513591 0.4277923 0.7437868
vn 0.1326036 0.6678168 0.7324186
vn 0.746295 0.6123956 0.2607984
vn 0.2153044 0.9382187 0.2709056
vn 0.9455634 0.1905926 0.2637901
vn -0.07849903 0.2570978 0.963192
vn -0.08430297 -0.2603102 0.9618378
vn -0.02939994 -0.2587025 0.9655097
vn -0.02939994 0.2587025 0.9655097
vn -0.08040173 0.7058167 0.703817
vn -0.02929992 0.7068031 0.7068033
vn -0.02929992 -0.7068031 0.7068033
vn -0.09340162 -0.7056137 0.7024139
vn -0.02920038 -0.9655151 0.2587042
vn -0.09999584 -0.9613605 0.2564895
vn -0.02910065 -0.965518 -0.2587049
vn -0.1009994 -0.9610929 -0.2570982
vn -0.02920044 -0.7068052 -0.7068054
vn -0.09629615 -0.7048698 -0.7027701
vn -0.02930075 -0.2587033 -0.9655126
vn -0.08949763 -0.259192 -0.9616706
vn -0.02930075 0.2587033 -0.9655126
vn -0.08600176 0.2576042 -0.9624159
vn -0.02930034 0.7068031 -0.7068033
vn -0.0881011 0.704707 -0.7040073
vn -0.02930048 0.9655123 -0.2587034
vn -0.0908959 0.9617554 -0.2583881
vn -0.02930031 0.9655123 0.2587034
vn -0.0873997 0.9627975 0.2556994
vn -0.02929992 0.7068031 0.7068033
vn -0.08040173 0.7058167 0.703817
vn -0.2247903 -0.05669745 -0.9727566
vn -0.259792 -0.01359956 -0.9655693
vn 0.2580958 -0.01609975 -0.9659853
vn 0.2714006 0.02250008 -0.9622035
vn -0.6798745 -0.157694 -0.7161732
vn -0.7079718 -0.0098996 -0.7061719
vn -0.9411027 -0.2141005 -0.261701
vn -0.9660121 -0.007000086 -0.2584035
vn 0.7032977 -0.02659991 -0.7103976
vn 0.6979731 0.06039767 -0.7135724
vn 0.9628441 -0.04880223 -0.2656119
vn 0.9596107 0.07260079 -0.2718027
vn 0.9639096 -0.05540054 0.2604029
vn 0.9606339 0.07390257 0.2678097
vn 0.7008806 -0.03579899 0.7123802
vn 0.6958833 0.06189849 0.7154828
vn 0.2556947 -0.01859959 0.9665791
vn 0.2680062 0.02390052 0.9631212
vn -0.259206 -0.01380033 0.9657235
vn -0.2232052 -0.05310131 0.9733242
vn -0.7079656 -0.01069948 0.7061657
vn -0.6797085 -0.1555019 0.716809
vn -0.9660906 -0.007399928 0.2580972
vn -0.9411309 -0.213107 0.2624083
vn -0.9660121 -0.007000086 -0.2584035
vn -0.9411027 -0.2141005 -0.261701
vn -0.6131966 -0.7399957 0.2763984
vn -0.6039809 -0.7536758 -0.2591919
vn -0.1120023 -0.9577199 0.2650055
vn -0.1268965 -0.9588721 -0.2538928
vn 0.004000068 -0.9658394 -0.2591106
vn 0.002800137 -0.9661131 0.2581036
vn -0.0902015 -0.691613 0.7166137
vn 0.001600206 -0.7069058 0.707306
vn -0.002899647 -0.2370012 0.9715053
vn -0.003499747 -0.2643087 0.964432
vn 0.03169954 0.2547936 0.966476
vn -0.02239901 0.2587928 0.9656733
vn 0.0454017 0.7088234 0.7039234
vn -0.02220082 0.7069324 0.7069327
vn 0.05340294 0.9648511 0.2573137
vn -0.02209944 0.9656795 0.2587946
vn 0.05309743 0.9649548 -0.256988
vn -0.02220015 0.9657024 -0.2587007
vn 0.04430026 0.7091073 -0.7037075
vn -0.02239955 0.7069793 -0.7068795
vn 0.02390087 0.2449127 -0.9692507
vn -0.01160038 0.2499005 -0.9682023
vn -0.01249993 -0.2301917 -0.9730653
vn 0.006899358 -0.25709 -0.9663631
vn -0.1119957 -0.6886721 -0.7163712
vn 0.00399983 -0.707001 -0.7072012
vn -0.1268965 -0.9588721 -0.2538928
vn 0.004000068 -0.9658394 -0.2591106
vn -0.1208973 -0.1636958 -0.9790751
vn 0.2113118 0.2051118 -0.955655
vn 0.1272966 0.2686935 -0.9547773
vn 0.263013 0.118006 -0.9575484
vn -0.4389775 -0.5318722 -0.7241626
vn -0.1268965 -0.9588721 -0.2538928
vn -0.6039809 -0.7536758 -0.2591919
vn -0.6039809 -0.7536758 -0.2591919
vn -0.9411027 -0.2141005 -0.261701
vn 0.4638827 0.53898 -0.7030739
vn 0.230999 0.6809972 -0.6948973
vn 0.6208687 0.7386627 -0.2624867
vn 0.2935114 0.9215358 -0.2542099
vn 0.6199754 0.7387703 0.2642897
vn 0.2944947 0.9207832 0.2557954
vn 0.4624051 0.5402055 0.7031075
vn 0.2330016 0.6801036 0.695104
vn 0.2069019 0.2061015 0.9564071
vn 0.1308021 0.2658034 0.9551125
vn -0.1287996 -0.1634998 0.9780995
vn -0.4537018 -0.5151021 0.727203
vn 0.2606026 0.118001 0.9582082
vn 0.6340828 0.2990917 0.7130806
vn 0.8737319 0.4039146 0.2710101
vn 0.8744454 0.4016208 -0.2721138
vn 0.6367313 0.2952145 -0.7123351
vn 0.513591 0.4277923 0.7437868
vn 0.746295 0.6123956 0.2607984
vn -0.9995772 -0.007499826 -0.02809972
vn -0.9995772 -0.007499826 -0.02809972
vn -0.9995772 0.007499826 -0.02809972
vn -0.9995772 0.007499826 -0.02809972
vn -0.9995758 -0.02059949 -0.02059984
vn -0.9995758 -0.02059949 -0.02059984
vn -0.9995772 -0.02809935 -0.007500172
vn -0.9995772 -0.02809935 -0.007500172
vn -0.9995773 -0.02809935 0.007499456
vn -0.9995773 -0.02809935 0.007499456
vn -0.9995759 -0.02059949 0.02059913
vn -0.9995759 -0.02059949 0.02059913
vn -0.9995772 -0.007499826 0.028099
vn -0.9995772 -0.007499826 0.028099
vn -0.9995772 0.007499826 0.028099
vn -0.9995772 0.007499826 0.028099
vn -0.9995759 0.02059949 0.02059913
vn -0.9995759 0.02059949 0.02059913
vn -0.9995773 0.02809935 0.007499456
vn -0.9995773 0.02809935 0.007499456
vn -0.9995772 0.02809935 -0.007500172
vn -0.9995772 0.02809935 -0.007500172
vn -0.9995758 0.02059949 -0.02059984
vn -0.9995758 0.02059949 -0.02059984
vn -0.08040173 0.7058167 0.703817
vn 0.1326036 0.6678168 0.7324186
vn 0.2153044 0.9382187 0.2709056
vn -0.008000157 -0.9995177 -0.03000055
vn -0.008000157 -0.9995177 -0.03000055
vn -0.02190045 -0.9995201 -0.02190045
vn -0.02190045 -0.9995201 -0.02190045
vn -0.03000055 -0.9995177 -0.008000156
vn -0.03000055 -0.9995177 -0.008000156
vn -0.03000054 -0.9995177 0.008000135
vn -0.03000054 -0.9995177 0.008000135
vn -0.02190044 -0.9995201 0.02190044
vn -0.02190044 -0.9995201 0.02190044
vn -0.008000134 -0.9995177 0.03000053
vn -0.008000134 -0.9995177 0.03000053
vn 0.008000157 -0.9995177 0.03000055
vn 0.008000157 -0.9995177 0.03000055
vn 0.02200036 -0.9995158 0.02200036
vn 0.02200036 -0.9995158 0.02200036
vn 0.03010043 -0.9995139 0.008100126
vn 0.03010043 -0.9995139 0.008100126
vn 0.03010043 -0.9995139 -0.008100104
vn 0.03010043 -0.9995139 -0.008100104
vn 0.02200035 -0.9995158 -0.02200035
vn 0.02200035 -0.9995158 -0.02200035
vn 0.008000134 -0.9995177 -0.03000053
vn 0.008000134 -0.9995177 -0.03000053
vn 0.9510571 0 -0.3090161
vn 0.809017 0 -0.5877854
vn 0.5877849 0 -0.8090171
vn 0.3090168 0 -0.9510567
vn 1.421085E-14 0 -1
vn -0.3090172 0 -0.9510568
vn -0.5877857 0 -0.8090172
vn -0.8090175 0 -0.5877854
vn -0.9510568 0 -0.3090169
vn -1 0 0
vn -0.9510567 0 0.3090171
vn -0.8090169 0 0.5877854
vn -0.5877851 0 0.8090172
vn -0.309017 0 0.9510567
vn -1.421085E-14 0 1
vn 0.3090172 0 0.9510568
vn 0.5877855 0 0.8090174
vn 0.8090174 0 0.5877855
vn 0.9510568 0 0.3090171
vn 1 0 0
vn 0.9510571 0 -0.3090161
vn 0.809017 0 -0.5877854
vn 0.5877849 0 -0.8090171
vn 0.3090168 0 -0.9510567
vn 1.421085E-14 0 -1
vn -0.3090172 0 -0.9510568
vn -0.5877857 0 -0.8090172
vn -0.8090175 0 -0.5877854
vn -0.9510568 0 -0.3090169
vn -1 0 0
vn -0.9510567 0 0.3090171
vn -0.8090169 0 0.5877854
vn -0.5877851 0 0.8090172
vn -0.309017 0 0.9510567
vn -1.421085E-14 0 1
vn 0.3090172 0 0.9510568
vn 0.5877855 0 0.8090174
vn 0.8090174 0 0.5877855
vn 0.9510568 0 0.3090171
vn 1 0 0
vn 0 -1 0
vn 0 1 0
vn -1 0 0
vn -1 0 0
vn 1 0 0
vn 1 0 0
vn 0.9510571 0 -0.3090161
vn 0.9510571 0 -0.3090161
vn 0 -1 0
vn 0 -1 0
vn 0 -1 0
vn 0 -1 0
vn 0 -1 0
vn 0 -1 0
vn 0 -1 0
vn 0 -1 0
vn 0 -1 0
vn 0 -1 0
vn 0 -1 0
vn 0 -1 0
vn 0 -1 0
vn 0 -1 0
vn 0 -1 0
vn 0 -1 0
vn 0 -1 0
vn 0 -1 0
vn 0 -1 0
vn 0 -1 0
vn 0 1 0
vn 0 1 0
vn 0 1 0
vn 0 1 0
vn 0 1 0
vn 0 1 0
vn 0 1 0
vn 0 1 0
vn 0 1 0
vn 0 1 0
vn 0 1 0
vn 0 1 0
vn 0 1 0
vn 0 1 0
vn 0 1 0
vn 0 1 0
vn 0 1 0
vn 0 1 0
vn 0 1 0
vn 0 1 0

vt 1.1956 1.3013
vt 1.1092 1.134
vt 1.0349 1.1878
vt 1.1119 1.3609
vt 1.2684 1.2507
vt 1.1808 1.0854
vt 1.3391 1.2102
vt 1.2523 1.0459
vt 0.9536 1.2344
vt 1.0077 1.4168
vt 0.865 1.2614
vt 0.8827 1.4512
vt 0.773 1.2605
vt 0.7507 1.4498
vt 0.684 1.232
vt 0.6283 1.4138
vt 0.6028 1.1838
vt 0.5272 1.3574
vt 0.5286 1.1289
vt 0.4477 1.2988
vt 0.4565 1.0803
vt 0.381 1.2516
vt 0.3814 1.0476
vt 0.3155 1.2217
vt 0.3026 1.0305
vt 0.2424 1.2041
vt 0.3122 0.961
vt 0.3949 0.9625
vt 0.3066 0.8922
vt 0.3889 0.8754
vt 0.4791 0.9681
vt 0.4725 0.8512
vt 0.5654 0.8821
vt 0.5548 0.8197
vt 0.566 0.9781
vt 0.5515 1.0719
vt 0.6455 0.8668
vt 0.6348 0.7867
vt 0.6479 0.9479
vt 0.6433 1.0289
vt 0.6298 1.1085
vt 0.7194 0.8546
vt 0.7119 0.7596
vt 0.7206 0.9494
vt 0.7171 1.0442
vt 0.7067 1.1388
vt 0.7879 0.848
vt 0.7862 0.7447
vt 0.7876 0.9504
vt 0.786 1.0528
vt 0.7818 1.1561
vt 0.8542 0.8485
vt 0.8591 0.7453
vt 0.8523 0.951
vt 0.8528 1.0535
vt 0.8564 1.1568
vt 0.9223 0.8562
vt 0.9328 0.7613
vt 0.919 0.9511
vt 0.9214 1.0461
vt 0.9314 1.141
vt 0.995 0.8698
vt 1.0085 0.7898
vt 1.0729 0.8868
vt 1.0859 0.8247
vt 1.0707 0.983
vt 0.9908 0.951
vt 0.9946 1.0323
vt 1.0856 1.077
vt 1.0079 1.1122
vt 1.1555 0.9744
vt 1.1638 0.859
vt 1.2333 0.9197
vt 1.2406 0.8865
vt 1.2531 1.047
vt 1.1414 0.7084
vt 1.0614 0.6562
vt 1.1138 0.5478
vt 1.2015 0.6034
vt 1.2179 0.7591
vt 1.281 0.656
vt 1.0103 0.4969
vt 0.9731 0.6106
vt 0.8901 0.4648
vt 0.8758 0.5831
vt 0.7626 0.4637
vt 0.7743 0.5822
vt 0.6428 0.4932
vt 0.6767 0.6079
vt 0.5407 0.5408
vt 0.5882 0.6513
vt 0.4561 0.591
vt 0.5078 0.7003
vt 0.3811 0.6333
vt 0.431 0.744
vt 0.3061 0.6655
vt 0.3529 0.7773
vt 0.2244 0.6942
vt 0.2711 0.8044
vt 0.1416 0.7273
vt 0.1887 0.8374
vt -0.1098 0.2599
vt -0.2018 0.422
vt -0.1078 0.4907
vt -0.0257 0.3228
vt -0.1905 0.2023
vt -0.2837 0.3628
vt -0.2706 0.1542
vt -0.3631 0.3137
vt 0.0095 0.5553
vt 0.0674 0.3773
vt 0.1507 0.5951
vt 0.1701 0.4087
vt 0.3007 0.5935
vt 0.2772 0.4077
vt 0.4394 0.5517
vt 0.3801 0.3742
vt 0.5535 0.4865
vt 0.4732 0.3178
vt 0.6429 0.4193
vt 0.5578 0.2536
vt 0.7175 0.3656
vt 0.6403 0.1967
vt 0.791 0.3325
vt 0.7273 0.1589
vt 0.8741 0.3146
vt 0.8187 0.1409
vt 0.7161 0.0877
vt 0.8116 0.0861
vt 0.737 -0.0313
vt 0.8315 -0.0088
vt 0.8918 -0.164
vt 0.7994 -0.1934
vt 0.6443 -0.0632
vt 0.7155 -0.2282
vt 0.5531 -0.1063
vt 0.6319 -0.2764
vt 0.486 -0.2217
vt 0.5371 -0.3343
vt 0.3855 -0.2722
vt 0.4222 -0.3896
vt 0.2744 -0.3021
vt 0.287 -0.4238
vt 0.1585 -0.301
vt 0.1429 -0.4225
vt 0.0477 -0.269
vt 0.0074 -0.3852
vt -0.0522 -0.2159
vt -0.1087 -0.326
vt -0.1135 -0.0982
vt -0.2067 -0.2612
vt -0.2007 -0.0487
vt -0.2953 -0.1999
vt -0.3124 -0.0385
vt -0.3806 -0.1427
vt -0.0737 0.1128
vt 0.0208 0.0412
vt 0.0039 -0.0815
vt 0.0111 0.2061
vt -0.1658 0.1027
vt -0.2614 0.0306
vt -0.2552 0.0574
vt -0.2609 0.1311
vt -0.2715 0.1559
vt 0.1048 0.0338
vt 0.0911 -0.114
vt 0.1833 0.0296
vt 0.1766 -0.1324
vt 0.2598 0.0289
vt 0.2614 -0.1331
vt 0.3389 0.0318
vt 0.3478 -0.1161
vt 0.4245 0.0375
vt 0.4371 -0.0853
vt 0.5226 0.1066
vt 0.6187 0.0948
vt 0.4365 0.2016
vt 0.3488 0.2287
vt 0.2646 0.2441
vt 0.1817 0.2449
vt 0.0979 0.2313
vt 1.1555 0.9744
vt 1.2407 1.0159
vt 0.0954 1.0898
vt 0.1094 1.1079
vt 0.1712 1.0267
vt 0.15 1.018
vt 0.0122 1.1246
vt 0.0153 1.1473
vt -0.0772 1.1131
vt -0.0859 1.1343
vt -0.149 1.0585
vt -0.1671 1.0725
vt -0.1838 0.9753
vt -0.2065 0.9783
vt -0.1723 0.8858
vt -0.1935 0.8771
vt -0.1177 0.8141
vt -0.1317 0.796
vt -0.0345 0.7793
vt -0.0376 0.7566
vt 0.055 0.7907
vt 0.0637 0.7696
vt 0.1267 0.8454
vt 0.1448 0.8314
vt 0.1615 0.9286
vt 0.1842 0.9255
vt 0.1901 0.8403
vt 0.2433 0.9257
vt 0.3129 0.8889
vt 1.0471 0.2506
vt 1.0384 0.2716
vt 1.1302 0.2834
vt 1.1271 0.2608
vt 1.2155 0.2477
vt 1.2016 0.2297
vt 1.2716 0.1741
vt 1.2505 0.1655
vt 1.2834 0.0824
vt 1.2608 0.0854
vt 1.2477 -0.003
vt 1.2296 0.011
vt 1.1741 -0.059
vt 1.1654 -0.038
vt 1.0823 -0.0708
vt 1.0854 -0.0482
vt 0.997 -0.0351
vt 1.0109 -0.0171
vt 0.9409 0.0385
vt 0.962 0.0471
vt 0.9291 0.1302
vt 0.9517 0.1272
vt 0.9648 0.2156
vt 0.9829 0.2016
vt 0.1005999 0.0004537381
vt 0.2005054 0.0004537381
vt 0.300411 0.0004537381
vt 0.4003165 0.0004537381
vt 0.500222 0.0004537381
vt 0.6001273 0.0004537381
vt 0.7000327 0.0004537381
vt 0.799938 0.0004537381
vt 0.8998432 0.0004537381
vt 0.999749 0.0004537381
vt 0.1005993 0.0004537381
vt 0.200505 0.0004537381
vt 0.3004106 0.0004537381
vt 0.400316 0.0004537381
vt 0.5002215 0.0004537381
vt 0.6001268 0.0004537381
vt 0.7000322 0.0004537381
vt 0.7999375 0.0004537381
vt 0.8998428 0.0004537381
vt 0.9997481 0.0004537381
vt 0.1005996 0.9994308
vt 0.2005053 0.9994308
vt 0.300411 0.9994308
vt 0.4003165 0.9994308
vt 0.500222 0.9994308
vt 0.6001273 0.9994308
vt 0.7000328 0.9994308
vt 0.7999381 0.9994308
vt 0.8998435 0.9994308
vt 0.9997491 0.9994308
vt 0.1005996 0.9994308
vt 0.2005051 0.9994308
vt 0.3004106 0.9994308
vt 0.400316 0.9994308
vt 0.5002215 0.9994308
vt 0.6001268 0.9994308
vt 0.7000321 0.9994308
vt 0.7999371 0.9994308
vt 0.8998424 0.9994308
vt 0.9997478 0.9994308
vt 0.5002239 0.4999443
vt 0.5002245 0.4999442
vt 0.0006936856 0.0004537381
vt 0.0006940446 0.9994308
vt 0.00069427 0.0004537381
vt 0.0006939089 0.9994308
vt 0.1005996 0.9994308
vt 0.1005999 0.0004537381
vt 0.0988569 0.7915539
vt 0.02838877 0.6532523
vt 0.2086136 0.9013107
vt 0.3469154 0.971779
vt 0.500224 0.9960608
vt 0.6535327 0.971779
vt 0.7918344 0.9013106
vt 0.901591 0.7915536
vt 0.9720588 0.6532521
vt 0.9963405 0.4999437
vt 0.9720586 0.3466355
vt 0.9015904 0.2083341
vt 0.7918337 0.09857755
vt 0.653532 0.02810944
vt 0.5002234 0.003827875
vt 0.346915 0.02810972
vt 0.2086136 0.09857795
vt 0.09885708 0.2083347
vt 0.02838913 0.3466361
vt 0.004107505 0.4999442
vt 0.9720596 0.6532523
vt 0.9015915 0.7915539
vt 0.7918347 0.9013107
vt 0.653533 0.971779
vt 0.5002243 0.9960608
vt 0.3469157 0.971779
vt 0.2086142 0.9013106
vt 0.0988576 0.7915537
vt 0.0283896 0.6532522
vt 0.004108027 0.4999439
vt 0.02838971 0.3466356
vt 0.09885782 0.2083341
vt 0.2086144 0.09857755
vt 0.3469159 0.02810938
vt 0.5002242 0.003827723
vt 0.6535327 0.02810941
vt 0.7918344 0.09857755
vt 0.901591 0.2083343
vt 0.9720591 0.3466357
vt 0.9963408 0.4999439

usemtl ShinyOrange
usemap ShinyOrange
f 2/2/2 1/1/1 3/3/3
f 3/3/3 1/1/1 4/4/4
f 1/1/1 2/2/2 5/5/5
f 5/5/5 2/2/2 6/6/6
f 5/5/5 6/6/6 7/7/7
f 7/7/7 6/6/6 8/8/8
f 4/4/4 9/9/9 3/3/3
f 10/10/10 9/9/9 4/4/4
f 10/10/10 11/11/11 9/9/9
f 12/12/12 11/11/11 10/10/10
f 12/12/12 13/13/13 11/11/11
f 14/14/14 13/13/13 12/12/12
f 14/14/14 15/15/15 13/13/13
f 16/16/16 15/15/15 14/14/14
f 16/16/16 17/17/17 15/15/15
f 18/18/18 17/17/17 16/16/16
f 18/18/18 19/19/19 17/17/17
f 20/20/20 19/19/19 18/18/18
f 20/20/20 21/21/21 19/19/19
f 22/22/22 21/21/21 20/20/20
f 22/22/22 23/23/23 21/21/21
f 24/24/24 23/23/23 22/22/22
f 24/24/24 25/25/25 23/23/23
f 26/26/26 25/25/25 24/24/24
f 25/25/25 27/27/27 23/23/23
f 23/23/23 27/27/27 28/28/28
f 23/23/23 28/28/28 21/21/21
f 27/27/27 29/29/29 28/28/28
f 28/28/28 29/29/29 30/30/30
f 28/28/28 30/30/30 31/31/31
f 21/21/21 28/28/28 31/31/31
f 21/21/21 31/31/31 19/19/19
f 31/31/31 30/30/30 32/32/32
f 31/31/31 32/32/32 33/33/33
f 33/33/33 32/32/32 34/34/34
f 35/35/35 31/31/31 33/33/33
f 36/36/36 31/31/31 35/35/35
f 19/19/19 31/31/31 36/36/36
f 33/33/33 34/34/34 37/37/37
f 37/37/37 34/34/34 38/38/38
f 35/35/35 33/33/33 39/39/39
f 39/39/39 33/33/33 37/37/37
f 40/40/40 35/35/35 39/39/39
f 36/36/36 35/35/35 41/41/41
f 41/41/41 35/35/35 40/40/40
f 19/19/19 36/36/36 17/17/17
f 17/17/17 36/36/36 41/41/41
f 37/37/37 38/38/38 42/42/42
f 42/42/42 38/38/38 43/43/43
f 39/39/39 37/37/37 44/44/44
f 44/44/44 37/37/37 42/42/42
f 40/40/40 39/39/39 45/45/45
f 45/45/45 39/39/39 44/44/44
f 41/41/41 40/40/40 46/46/46
f 46/46/46 40/40/40 45/45/45
f 17/17/17 41/41/41 15/15/15
f 15/15/15 41/41/41 46/46/46
f 42/42/42 43/43/43 47/47/47
f 47/47/47 43/43/43 48/48/48
f 44/44/44 42/42/42 49/49/49
f 49/49/49 42/42/42 47/47/47
f 45/45/45 44/44/44 50/50/50
f 50/50/50 44/44/44 49/49/49
f 46/46/46 45/45/45 51/51/51
f 51/51/51 45/45/45 50/50/50
f 15/15/15 46/46/46 13/13/13
f 13/13/13 46/46/46 51/51/51
f 47/47/47 48/48/48 52/52/52
f 52/52/52 48/48/48 53/53/53
f 49/49/49 47/47/47 54/54/54
f 54/54/54 47/47/47 52/52/52
f 50/50/50 49/49/49 55/55/55
f 55/55/55 49/49/49 54/54/54
f 51/51/51 50/50/50 56/56/56
f 56/56/56 50/50/50 55/55/55
f 13/13/13 51/51/51 11/11/11
f 11/11/11 51/51/51 56/56/56
f 52/52/52 53/53/53 57/57/57
f 57/57/57 53/53/53 58/58/58
f 54/54/54 52/52/52 59/59/59
f 59/59/59 52/52/52 57/57/57
f 55/55/55 54/54/54 60/60/60
f 60/60/60 54/54/54 59/59/59
f 56/56/56 55/55/55 61/61/61
f 61/61/61 55/55/55 60/60/60
f 11/11/11 56/56/56 9/9/9
f 9/9/9 56/56/56 61/61/61
f 57/57/57 58/58/58 62/62/62
f 62/62/62 58/58/58 63/63/63
f 63/63/63 64/64/64 62/62/62
f 65/65/65 64/64/64 63/63/63
f 64/64/64 66/66/66 62/62/62
f 62/62/62 66/66/66 67/67/67
f 59/59/59 57/57/57 67/67/67
f 67/67/67 57/57/57 62/62/62
f 67/67/67 66/66/66 68/68/68
f 60/60/60 59/59/59 68/68/68
f 68/68/68 59/59/59 67/67/67
f 66/66/66 69/69/69 68/68/68
f 68/68/68 69/69/69 70/70/70
f 61/61/61 60/60/60 70/70/70
f 70/70/70 60/60/60 68/68/68
f 69/69/69 2/2/2 70/70/70
f 70/70/70 2/2/2 3/3/3
f 9/9/9 61/61/61 3/3/3
f 3/3/3 61/61/61 70/70/70
f 64/64/64 65/65/65 71/71/71
f 66/66/66 64/64/64 71/71/71
f 69/69/69 66/66/66 71/71/71
f 71/71/71 65/65/65 72/72/72
f 2/2/2 69/69/69 6/6/6
f 6/6/6 69/69/69 71/71/71
f 71/71/71 72/72/72 73/73/73
f 73/73/73 72/72/72 74/74/74
f 6/6/6 71/71/71 75/75/75
f 63/63/63 76/76/76 65/65/65
f 77/77/77 76/76/76 63/63/63
f 78/78/78 76/76/76 77/77/77
f 79/79/79 76/76/76 78/78/78
f 76/76/76 79/79/79 80/80/80
f 80/80/80 79/79/79 81/81/81
f 77/77/77 82/82/82 78/78/78
f 83/83/83 82/82/82 77/77/77
f 83/83/83 84/84/84 82/82/82
f 85/85/85 84/84/84 83/83/83
f 85/85/85 86/86/86 84/84/84
f 87/87/87 86/86/86 85/85/85
f 87/87/87 88/88/88 86/86/86
f 89/89/89 88/88/88 87/87/87
f 89/89/89 90/90/90 88/88/88
f 91/91/91 90/90/90 89/89/89
f 91/91/91 92/92/92 90/90/90
f 93/93/93 92/92/92 91/91/91
f 93/93/93 94/94/94 92/92/92
f 95/95/95 94/94/94 93/93/93
f 95/95/95 96/96/96 94/94/94
f 97/97/97 96/96/96 95/95/95
f 97/97/97 98/98/98 96/96/96
f 99/99/99 98/98/98 97/97/97
f 99/99/99 100/100/100 98/98/98
f 101/101/101 100/100/100 99/99/99
f 99/99/99 97/97/97 29/29/29
f 29/29/29 97/97/97 30/30/30
f 97/97/97 95/95/95 30/30/30
f 30/30/30 95/95/95 32/32/32
f 95/95/95 93/93/93 32/32/32
f 32/32/32 93/93/93 34/34/34
f 93/93/93 91/91/91 34/34/34
f 34/34/34 91/91/91 38/38/38
f 91/91/91 89/89/89 38/38/38
f 38/38/38 89/89/89 43/43/43
f 89/89/89 87/87/87 43/43/43
f 43/43/43 87/87/87 48/48/48
f 87/87/87 85/85/85 48/48/48
f 48/48/48 85/85/85 53/53/53
f 85/85/85 83/83/83 53/53/53
f 53/53/53 83/83/83 58/58/58
f 83/83/83 77/77/77 58/58/58
f 58/58/58 77/77/77 63/63/63
f 103/103/103 102/102/102 104/104/104
f 104/104/104 102/102/102 105/105/105
f 102/102/102 103/103/103 106/106/106
f 106/106/106 103/103/103 107/107/107
f 106/106/106 107/107/107 108/108/108
f 108/108/108 107/107/107 109/109/109
f 105/105/105 110/110/110 104/104/104
f 111/111/111 110/110/110 105/105/105
f 111/111/111 112/112/112 110/110/110
f 113/113/113 112/112/112 111/111/111
f 113/113/113 114/114/114 112/112/112
f 115/115/115 114/114/114 113/113/113
f 115/115/115 116/116/116 114/114/114
f 117/117/117 116/116/116 115/115/115
f 117/117/117 118/118/118 116/116/116
f 119/119/119 118/118/118 117/117/117
f 119/119/119 120/120/120 118/118/118
f 121/121/121 120/120/120 119/119/119
f 121/121/121 122/122/122 120/120/120
f 123/123/123 122/122/122 121/121/121
f 123/123/123 124/124/124 122/122/122
f 125/125/125 124/124/124 123/123/123
f 125/125/125 126/126/126 124/124/124
f 127/127/127 126/126/126 125/125/125
f 128/128/128 127/127/127 125/125/125
f 129/129/129 127/127/127 128/128/128
f 130/130/130 129/129/129 128/128/128
f 131/131/131 129/129/129 130/130/130
f 131/131/131 130/130/130 132/132/132
f 132/132/132 130/130/130 133/133/133
f 130/130/130 134/134/134 133/133/133
f 130/130/130 128/128/128 134/134/134
f 133/133/133 134/134/134 135/135/135
f 134/134/134 136/136/136 135/135/135
f 135/135/135 136/136/136 137/137/137
f 136/136/136 138/138/138 137/137/137
f 137/137/137 138/138/138 139/139/139
f 138/138/138 140/140/140 139/139/139
f 139/139/139 140/140/140 141/141/141
f 140/140/140 142/142/142 141/141/141
f 141/141/141 142/142/142 143/143/143
f 142/142/142 144/144/144 143/143/143
f 143/143/143 144/144/144 145/145/145
f 144/144/144 146/146/146 145/145/145
f 145/145/145 146/146/146 147/147/147
f 146/146/146 148/148/148 147/147/147
f 147/147/147 148/148/148 149/149/149
f 148/148/148 150/150/150 149/149/149
f 149/149/149 150/150/150 151/151/151
f 150/150/150 152/152/152 151/151/151
f 151/151/151 152/152/152 153/153/153
f 152/152/152 154/154/154 153/153/153
f 153/153/153 154/154/154 155/155/155
f 150/150/150 156/156/156 152/152/152
f 156/156/156 150/150/150 157/157/157
f 157/157/157 150/150/150 158/158/158
f 150/150/150 148/148/148 158/158/158
f 156/156/156 157/157/157 159/159/159
f 105/105/105 156/156/156 159/159/159
f 102/102/102 156/156/156 105/105/105
f 152/152/152 156/156/156 160/160/160
f 156/156/156 102/102/102 160/160/160
f 160/160/160 102/102/102 106/106/106
f 152/152/152 160/160/160 161/161/161
f 161/161/161 160/160/160 162/162/162
f 160/160/160 106/106/106 163/163/163
f 163/163/163 106/106/106 164/164/164
f 158/158/158 165/165/165 157/157/157
f 166/166/166 165/165/165 158/158/158
f 166/166/166 167/167/167 165/165/165
f 168/168/168 167/167/167 166/166/166
f 168/168/168 169/169/169 167/167/167
f 170/170/170 169/169/169 168/168/168
f 170/170/170 171/171/171 169/169/169
f 172/172/172 171/171/171 170/170/170
f 172/172/172 173/173/173 171/171/171
f 174/174/174 173/173/173 172/172/172
f 174/174/174 175/175/175 173/173/173
f 136/136/136 175/175/175 174/174/174
f 136/136/136 176/176/176 175/175/175
f 134/134/134 176/176/176 136/136/136
f 134/134/134 128/128/128 176/176/176
f 128/128/128 125/125/125 176/176/176
f 176/176/176 125/125/125 123/123/123
f 176/176/176 123/123/123 175/175/175
f 175/175/175 123/123/123 121/121/121
f 173/173/173 175/175/175 177/177/177
f 175/175/175 121/121/121 177/177/177
f 173/173/173 177/177/177 171/171/171
f 177/177/177 121/121/121 119/119/119
f 171/171/171 177/177/177 178/178/178
f 177/177/177 119/119/119 178/178/178
f 178/178/178 119/119/119 117/117/117
f 171/171/171 178/178/178 169/169/169
f 169/169/169 178/178/178 179/179/179
f 178/178/178 117/117/117 179/179/179
f 179/179/179 117/117/117 115/115/115
f 169/169/169 179/179/179 167/167/167
f 167/167/167 179/179/179 180/180/180
f 179/179/179 115/115/115 180/180/180
f 180/180/180 115/115/115 113/113/113
f 167/167/167 180/180/180 165/165/165
f 165/165/165 180/180/180 181/181/181
f 180/180/180 113/113/113 181/181/181
f 181/181/181 113/113/113 111/111/111
f 165/165/165 181/181/181 157/157/157
f 157/157/157 181/181/181 159/159/159
f 181/181/181 111/111/111 159/159/159
f 159/159/159 111/111/111 105/105/105
f 75/75/75 182/182/182 183/183/183
f 185/185/185 184/184/184 186/186/186
f 186/186/186 184/184/184 187/187/187
f 184/184/184 185/185/185 188/188/188
f 188/188/188 185/185/185 189/189/189
f 188/188/188 189/189/189 190/190/190
f 190/190/190 189/189/189 191/191/191
f 190/190/190 191/191/191 192/192/192
f 192/192/192 191/191/191 193/193/193
f 192/192/192 193/193/193 194/194/194
f 194/194/194 193/193/193 195/195/195
f 194/194/194 195/195/195 196/196/196
f 196/196/196 195/195/195 197/197/197
f 196/196/196 197/197/197 198/198/198
f 198/198/198 197/197/197 199/199/199
f 198/198/198 199/199/199 200/200/200
f 200/200/200 199/199/199 201/201/201
f 200/200/200 201/201/201 202/202/202
f 202/202/202 201/201/201 203/203/203
f 202/202/202 203/203/203 204/204/204
f 204/204/204 203/203/203 205/205/205
f 204/204/204 205/205/205 206/206/206
f 206/206/206 205/205/205 207/207/207
f 206/206/206 207/207/207 187/187/187
f 187/187/187 207/207/207 186/186/186
f 76/76/76 80/80/80 65/65/65
f 65/65/65 80/80/80 72/72/72
f 208/208/208 99/99/99 209/209/209
f 209/209/209 99/99/99 210/210/210
f 138/138/138 136/136/136 174/174/174
f 138/138/138 174/174/174 140/140/140
f 140/140/140 174/174/174 172/172/172
f 140/140/140 172/172/172 142/142/142
f 142/142/142 172/172/172 170/170/170
f 142/142/142 170/170/170 144/144/144
f 144/144/144 170/170/170 168/168/168
f 144/144/144 168/168/168 146/146/146
f 146/146/146 168/168/168 166/166/166
f 146/146/146 166/166/166 148/148/148
f 148/148/148 166/166/166 158/158/158
f 212/212/212 211/211/211 213/213/213
f 213/213/213 211/211/211 214/214/214
f 213/213/213 214/214/214 215/215/215
f 215/215/215 214/214/214 216/216/216
f 215/215/215 216/216/216 217/217/217
f 217/217/217 216/216/216 218/218/218
f 217/217/217 218/218/218 219/219/219
f 219/219/219 218/218/218 220/220/220
f 219/219/219 220/220/220 221/221/221
f 221/221/221 220/220/220 222/222/222
f 221/221/221 222/222/222 223/223/223
f 223/223/223 222/222/222 224/224/224
f 223/223/223 224/224/224 225/225/225
f 225/225/225 224/224/224 226/226/226
f 225/225/225 226/226/226 227/227/227
f 227/227/227 226/226/226 228/228/228
f 227/227/227 228/228/228 229/229/229
f 229/229/229 228/228/228 230/230/230
f 229/229/229 230/230/230 231/231/231
f 231/231/231 230/230/230 232/232/232
f 231/231/231 232/232/232 233/233/233
f 233/233/233 232/232/232 234/234/234
f 233/233/233 234/234/234 212/212/212
f 212/212/212 234/234/234 211/211/211
f 255/255/255 235/235/235 256/256/256
f 256/256/256 235/235/235 236/236/236
f 256/256/256 236/236/236 257/257/257
f 257/257/257 236/236/236 237/237/237
f 257/257/257 237/237/237 258/258/258
f 258/258/258 237/237/237 238/238/238
f 258/258/258 238/238/238 259/259/259
f 259/259/259 238/238/238 239/239/239
f 259/259/259 239/239/239 260/260/260
f 260/260/260 239/239/239 240/240/240
f 260/260/260 240/240/240 261/261/261
f 261/261/261 240/240/240 241/241/241
f 261/261/261 241/241/241 262/262/262
f 262/262/262 241/241/241 242/242/242
f 262/262/262 242/242/242 263/263/263
f 263/263/263 242/242/242 243/243/243
f 263/263/263 243/243/243 264/264/264
f 264/264/264 243/243/243 244/244/244
f 278/278/278 277/277/277 265/265/265
f 265/265/265 277/277/277 245/245/245
f 265/265/265 245/245/245 266/266/266
f 266/266/266 245/245/245 246/246/246
f 266/266/266 246/246/246 267/267/267
f 267/267/267 246/246/246 247/247/247
f 267/267/267 247/247/247 268/268/268
f 268/268/268 247/247/247 248/248/248
f 268/268/268 248/248/248 269/269/269
f 269/269/269 248/248/248 249/249/249
f 269/269/269 249/249/249 270/270/270
f 270/270/270 249/249/249 250/250/250
f 270/270/270 250/250/250 271/271/271
f 271/271/271 250/250/250 251/251/251
f 271/271/271 251/251/251 272/272/272
f 272/272/272 251/251/251 252/252/252
f 272/272/272 252/252/252 273/273/273
f 273/273/273 252/252/252 253/253/253
f 273/273/273 253/253/253 274/274/274
f 274/274/274 253/253/253 254/254/254
f 280/280/280 279/279/279 281/281/281
f 281/281/281 279/279/279 282/282/282
f 275/275/275 283/283/283 284/284/284
f 275/275/275 285/285/285 283/283/283
f 275/275/275 286/286/286 285/285/285
f 275/275/275 287/287/287 286/286/286
f 275/275/275 288/288/288 287/287/287
f 275/275/275 289/289/289 288/288/288
f 275/275/275 290/290/290 289/289/289
f 275/275/275 291/291/291 290/290/290
f 275/275/275 292/292/292 291/291/291
f 275/275/275 293/293/293 292/292/292
f 275/275/275 294/294/294 293/293/293
f 275/275/275 295/295/295 294/294/294
f 275/275/275 296/296/296 295/295/295
f 275/275/275 297/297/297 296/296/296
f 275/275/275 298/298/298 297/297/297
f 275/275/275 299/299/299 298/298/298
f 275/275/275 300/300/300 299/299/299
f 275/275/275 301/301/301 300/300/300
f 275/275/275 302/302/302 301/301/301
f 275/275/275 284/284/284 302/302/302
f 276/276/276 303/303/303 304/304/304
f 276/276/276 304/304/304 305/305/305
f 276/276/276 305/305/305 306/306/306
f 276/276/276 306/306/306 307/307/307
f 276/276/276 307/307/307 308/308/308
f 276/276/276 308/308/308 309/309/309
f 276/276/276 309/309/309 310/310/310
f 276/276/276 310/310/310 311/311/311
f 276/276/276 311/311/311 312/312/312
f 276/276/276 312/312/312 313/313/313
f 276/276/276 313/313/313 314/314/314
f 276/276/276 314/314/314 315/315/315
f 276/276/276 315/315/315 316/316/316
f 276/276/276 316/316/316 317/317/317
f 276/276/276 317/317/317 318/318/318
f 276/276/276 318/318/318 319/319/319
f 276/276/276 319/319/319 320/320/320
f 276/276/276 320/320/320 321/321/321
f 276/276/276 321/321/321 322/322/322
f 276/276/276 322/322/322 303/303/303
