mtllib ./endBucket_0.mtl
g endBucket
v 1.383293 -4.63 9.768237
v 1.383293 -3.63 9.768237
v 1.276763 -3.63 9.559161
v 1.276763 -4.63 9.559161
v 1.110839 -3.63 9.393237
v 1.110839 -4.63 9.393237
v 0.901763 -3.63 9.286707
v 0.901763 -4.63 9.286707
v 0.6700001 -3.63 9.25
v 0.6700001 -4.63 9.25
v 0.4382372 -3.63 9.286707
v 0.4382372 -4.63 9.286707
v 0.229161 -3.63 9.393237
v 0.229161 -4.63 9.393237
v 0.06323713 -3.63 9.559161
v 0.06323713 -4.63 9.559161
v -0.04329252 -3.63 9.768237
v -0.04329252 -4.63 9.768237
v -0.0800001 -3.63 10
v -0.0800001 -4.63 10
v -0.0800001 -4.63 10
v -0.0800001 -3.63 10
v -0.04329252 -3.63 10.23176
v -0.04329252 -4.63 10.23176
v 0.06323719 -3.63 10.44084
v 0.06323719 -4.63 10.44084
v 0.2291611 -3.63 10.60676
v 0.2291611 -4.63 10.60676
v 0.4382373 -3.63 10.71329
v 0.4382373 -4.63 10.71329
v 0.6700001 -3.63 10.75
v 0.6700001 -4.63 10.75
v 0.9017628 -3.63 10.71329
v 0.9017628 -4.63 10.71329
v 1.110839 -3.63 10.60676
v 1.110839 -4.63 10.60676
v 1.276763 -3.63 10.44084
v 1.276763 -4.63 10.44084
v 1.383292 -3.63 10.23176
v 1.383292 -4.63 10.23176
v 1.42 -3.63 10
v 1.42 -4.63 10
v 1.42 -4.63 10
v 1.42 -3.63 10
v 1.383293 -3.63 9.768237
v 1.383293 -4.63 9.768237
v 1.276763 -4.63 9.559161
v 0.6700001 -4.63 10
v 1.383293 -4.63 9.768237
v 1.110839 -4.63 9.393237
v 0.901763 -4.63 9.286707
v 0.6700001 -4.63 9.25
v 0.4382372 -4.63 9.286707
v 0.229161 -4.63 9.393237
v 0.06323713 -4.63 9.559161
v -0.04329252 -4.63 9.768237
v -0.0800001 -4.63 10
v -0.04329252 -4.63 10.23176
v 0.06323719 -4.63 10.44084
v 0.2291611 -4.63 10.60676
v 0.4382373 -4.63 10.71329
v 0.6700001 -4.63 10.75
v 0.9017628 -4.63 10.71329
v 1.110839 -4.63 10.60676
v 1.276763 -4.63 10.44084
v 1.383292 -4.63 10.23176
v 1.42 -4.63 10
v 1.383293 -3.63 9.768237
v 0.6700001 -3.63 10
v 1.276763 -3.63 9.559161
v 1.110839 -3.63 9.393237
v 0.901763 -3.63 9.286707
v 0.6700001 -3.63 9.25
v 0.4382372 -3.63 9.286707
v 0.229161 -3.63 9.393237
v 0.06323713 -3.63 9.559161
v -0.04329252 -3.63 9.768237
v -0.0800001 -3.63 10
v -0.04329252 -3.63 10.23176
v 0.06323719 -3.63 10.44084
v 0.2291611 -3.63 10.60676
v 0.4382373 -3.63 10.71329
v 0.6700001 -3.63 10.75
v 0.9017628 -3.63 10.71329
v 1.110839 -3.63 10.60676
v 1.276763 -3.63 10.44084
v 1.383292 -3.63 10.23176
v 1.42 -3.63 10

vn 0.9510568 0 -0.309016
vn 0.9510568 0 -0.309016
vn 0.809017 0 -0.5877854
vn 0.809017 0 -0.5877854
vn 0.5877851 0 -0.8090171
vn 0.5877851 0 -0.8090171
vn 0.3090168 0 -0.9510565
vn 0.3090168 0 -0.9510565
vn 0 0 -1
vn 0 0 -1
vn -0.3090171 0 -0.9510565
vn -0.3090171 0 -0.9510565
vn -0.5877854 0 -0.8090168
vn -0.5877854 0 -0.8090168
vn -0.8090171 0 -0.5877851
vn -0.8090171 0 -0.5877851
vn -0.9510565 0 -0.3090169
vn -0.9510565 0 -0.3090169
vn -1 0 0
vn -1 0 0
vn -1 0 0
vn -1 0 0
vn -0.9510565 0 0.309017
vn -0.9510565 0 0.309017
vn -0.8090169 0 0.5877854
vn -0.8090169 0 0.5877854
vn -0.5877852 0 0.8090171
vn -0.5877852 0 0.8090171
vn -0.3090169 0 0.9510565
vn -0.3090169 0 0.9510565
vn 0 0 1
vn 0 0 1
vn 0.3090171 0 0.9510565
vn 0.3090171 0 0.9510565
vn 0.5877852 0 0.809017
vn 0.5877852 0 0.809017
vn 0.809017 0 0.5877852
vn 0.809017 0 0.5877852
vn 0.9510565 0 0.3090169
vn 0.9510565 0 0.3090169
vn 1 0 0
vn 1 0 0
vn 1 0 0
vn 1 0 0
vn 0.9510568 0 -0.309016
vn 0.9510568 0 -0.309016
vn 0 -1 0
vn 0 -1 0
vn 0 -1 0
vn 0 -1 0
vn 0 -1 0
vn 0 -1 0
vn 0 -1 0
vn 0 -1 0
vn 0 -1 0
vn 0 -1 0
vn 0 -1 0
vn 0 -1 0
vn 0 -1 0
vn 0 -1 0
vn 0 -1 0
vn 0 -1 0
vn 0 -1 0
vn 0 -1 0
vn 0 -1 0
vn 0 -1 0
vn 0 -1 0
vn 0 1 0
vn 0 1 0
vn 0 1 0
vn 0 1 0
vn 0 1 0
vn 0 1 0
vn 0 1 0
vn 0 1 0
vn 0 1 0
vn 0 1 0
vn 0 1 0
vn 0 1 0
vn 0 1 0
vn 0 1 0
vn 0 1 0
vn 0 1 0
vn 0 1 0
vn 0 1 0
vn 0 1 0
vn 0 1 0
vn 0 1 0

vt 0.1005999 0.0004537381
vt 0.1005996 0.9994308
vt 0.2005053 0.9994308
vt 0.2005054 0.0004537381
vt 0.300411 0.9994308
vt 0.300411 0.0004537381
vt 0.4003165 0.9994308
vt 0.4003165 0.0004537381
vt 0.500222 0.9994308
vt 0.500222 0.0004537381
vt 0.6001273 0.9994308
vt 0.6001273 0.0004537381
vt 0.7000328 0.9994308
vt 0.7000327 0.0004537381
vt 0.7999381 0.9994308
vt 0.799938 0.0004537381
vt 0.8998435 0.9994308
vt 0.8998432 0.0004537381
vt 0.9997491 0.9994308
vt 0.999749 0.0004537381
vt 0.0006936856 0.0004537381
vt 0.0006940446 0.9994308
vt 0.1005996 0.9994308
vt 0.1005993 0.0004537381
vt 0.2005051 0.9994308
vt 0.200505 0.0004537381
vt 0.3004106 0.9994308
vt 0.3004106 0.0004537381
vt 0.400316 0.9994308
vt 0.400316 0.0004537381
vt 0.5002215 0.9994308
vt 0.5002215 0.0004537381
vt 0.6001268 0.9994308
vt 0.6001268 0.0004537381
vt 0.7000321 0.9994308
vt 0.7000322 0.0004537381
vt 0.7999371 0.9994308
vt 0.7999375 0.0004537381
vt 0.8998424 0.9994308
vt 0.8998428 0.0004537381
vt 0.9997478 0.9994308
vt 0.9997481 0.0004537381
vt 0.00069427 0.0004537381
vt 0.0006939089 0.9994308
vt 0.1005996 0.9994308
vt 0.1005999 0.0004537381
vt 0.0988569 0.7915539
vt 0.5002239 0.4999443
vt 0.02838877 0.6532523
vt 0.2086136 0.9013107
vt 0.3469154 0.971779
vt 0.500224 0.9960608
vt 0.6535327 0.971779
vt 0.7918344 0.9013106
vt 0.901591 0.7915536
vt 0.9720588 0.6532521
vt 0.9963405 0.4999437
vt 0.9720586 0.3466355
vt 0.9015904 0.2083341
vt 0.7918337 0.09857755
vt 0.653532 0.02810944
vt 0.5002234 0.003827875
vt 0.346915 0.02810972
vt 0.2086136 0.09857795
vt 0.09885708 0.2083347
vt 0.02838913 0.3466361
vt 0.004107505 0.4999442
vt 0.9720596 0.6532523
vt 0.5002245 0.4999442
vt 0.9015915 0.7915539
vt 0.7918347 0.9013107
vt 0.653533 0.971779
vt 0.5002243 0.9960608
vt 0.3469157 0.971779
vt 0.2086142 0.9013106
vt 0.0988576 0.7915537
vt 0.0283896 0.6532522
vt 0.004108027 0.4999439
vt 0.02838971 0.3466356
vt 0.09885782 0.2083341
vt 0.2086144 0.09857755
vt 0.3469159 0.02810938
vt 0.5002242 0.003827723
vt 0.6535327 0.02810941
vt 0.7918344 0.09857755
vt 0.901591 0.2083343
vt 0.9720591 0.3466357
vt 0.9963408 0.4999439

usemtl Mobile Glass
usemap Mobile Glass
f 2/2/2 1/1/1 3/3/3
f 3/3/3 1/1/1 4/4/4
f 3/3/3 4/4/4 5/5/5
f 5/5/5 4/4/4 6/6/6
f 5/5/5 6/6/6 7/7/7
f 7/7/7 6/6/6 8/8/8
f 7/7/7 8/8/8 9/9/9
f 9/9/9 8/8/8 10/10/10
f 9/9/9 10/10/10 11/11/11
f 11/11/11 10/10/10 12/12/12
f 11/11/11 12/12/12 13/13/13
f 13/13/13 12/12/12 14/14/14
f 13/13/13 14/14/14 15/15/15
f 15/15/15 14/14/14 16/16/16
f 15/15/15 16/16/16 17/17/17
f 17/17/17 16/16/16 18/18/18
f 17/17/17 18/18/18 19/19/19
f 19/19/19 18/18/18 20/20/20
f 22/22/22 21/21/21 23/23/23
f 23/23/23 21/21/21 24/24/24
f 23/23/23 24/24/24 25/25/25
f 25/25/25 24/24/24 26/26/26
f 25/25/25 26/26/26 27/27/27
f 27/27/27 26/26/26 28/28/28
f 27/27/27 28/28/28 29/29/29
f 29/29/29 28/28/28 30/30/30
f 29/29/29 30/30/30 31/31/31
f 31/31/31 30/30/30 32/32/32
f 31/31/31 32/32/32 33/33/33
f 33/33/33 32/32/32 34/34/34
f 33/33/33 34/34/34 35/35/35
f 35/35/35 34/34/34 36/36/36
f 35/35/35 36/36/36 37/37/37
f 37/37/37 36/36/36 38/38/38
f 37/37/37 38/38/38 39/39/39
f 39/39/39 38/38/38 40/40/40
f 39/39/39 40/40/40 41/41/41
f 41/41/41 40/40/40 42/42/42
f 44/44/44 43/43/43 45/45/45
f 45/45/45 43/43/43 46/46/46
f 48/48/48 47/47/47 49/49/49
f 48/48/48 50/50/50 47/47/47
f 48/48/48 51/51/51 50/50/50
f 48/48/48 52/52/52 51/51/51
f 48/48/48 53/53/53 52/52/52
f 48/48/48 54/54/54 53/53/53
f 48/48/48 55/55/55 54/54/54
f 48/48/48 56/56/56 55/55/55
f 48/48/48 57/57/57 56/56/56
f 48/48/48 58/58/58 57/57/57
f 48/48/48 59/59/59 58/58/58
f 48/48/48 60/60/60 59/59/59
f 48/48/48 61/61/61 60/60/60
f 48/48/48 62/62/62 61/61/61
f 48/48/48 63/63/63 62/62/62
f 48/48/48 64/64/64 63/63/63
f 48/48/48 65/65/65 64/64/64
f 48/48/48 66/66/66 65/65/65
f 48/48/48 67/67/67 66/66/66
f 48/48/48 49/49/49 67/67/67
f 69/69/69 68/68/68 70/70/70
f 69/69/69 70/70/70 71/71/71
f 69/69/69 71/71/71 72/72/72
f 69/69/69 72/72/72 73/73/73
f 69/69/69 73/73/73 74/74/74
f 69/69/69 74/74/74 75/75/75
f 69/69/69 75/75/75 76/76/76
f 69/69/69 76/76/76 77/77/77
f 69/69/69 77/77/77 78/78/78
f 69/69/69 78/78/78 79/79/79
f 69/69/69 79/79/79 80/80/80
f 69/69/69 80/80/80 81/81/81
f 69/69/69 81/81/81 82/82/82
f 69/69/69 82/82/82 83/83/83
f 69/69/69 83/83/83 84/84/84
f 69/69/69 84/84/84 85/85/85
f 69/69/69 85/85/85 86/86/86
f 69/69/69 86/86/86 87/87/87
f 69/69/69 87/87/87 88/88/88
f 69/69/69 88/88/88 68/68/68
g endLiquid
v 1.311964 -4.58 9.791413
v 1.311964 -3.68 9.791413
v 1.216087 -3.68 9.603245
v 1.216087 -4.58 9.603245
v 1.066755 -3.68 9.453913
v 1.066755 -4.58 9.453913
v 0.8785866 -3.68 9.358036
v 0.8785866 -4.58 9.358036
v 0.6700001 -3.68 9.325
v 0.6700001 -4.58 9.325
v 0.4614135 -3.68 9.358037
v 0.4614135 -4.58 9.358037
v 0.2732449 -3.68 9.453914
v 0.2732449 -4.58 9.453914
v 0.1239135 -3.68 9.603245
v 0.1239135 -4.58 9.603245
v 0.02803677 -3.68 9.791413
v 0.02803677 -4.58 9.791413
v -0.005000114 -3.68 10
v -0.005000114 -4.58 10
v -0.005000114 -4.58 10
v -0.005000114 -3.68 10
v 0.02803677 -3.68 10.20859
v 0.02803677 -4.58 10.20859
v 0.1239135 -3.68 10.39676
v 0.1239135 -4.58 10.39676
v 0.2732449 -3.68 10.54609
v 0.2732449 -4.58 10.54609
v 0.4614136 -3.68 10.64196
v 0.4614136 -4.58 10.64196
v 0.6700001 -3.68 10.675
v 0.6700001 -4.58 10.675
v 0.8785865 -3.68 10.64196
v 0.8785865 -4.58 10.64196
v 1.066755 -3.68 10.54609
v 1.066755 -4.58 10.54609
v 1.216087 -3.68 10.39676
v 1.216087 -4.58 10.39676
v 1.311963 -3.68 10.20859
v 1.311963 -4.58 10.20859
v 1.345 -3.68 10
v 1.345 -4.58 10
v 1.345 -4.58 10
v 1.345 -3.68 10
v 1.311964 -3.68 9.791413
v 1.311964 -4.58 9.791413
v 1.216087 -4.58 9.603245
v 0.6700001 -4.58 10
v 1.311964 -4.58 9.791413
v 1.066755 -4.58 9.453913
v 0.8785866 -4.58 9.358036
v 0.6700001 -4.58 9.325
v 0.4614135 -4.58 9.358037
v 0.2732449 -4.58 9.453914
v 0.1239135 -4.58 9.603245
v 0.02803677 -4.58 9.791413
v -0.005000114 -4.58 10
v 0.02803677 -4.58 10.20859
v 0.1239135 -4.58 10.39676
v 0.2732449 -4.58 10.54609
v 0.4614136 -4.58 10.64196
v 0.6700001 -4.58 10.675
v 0.8785865 -4.58 10.64196
v 1.066755 -4.58 10.54609
v 1.216087 -4.58 10.39676
v 1.311963 -4.58 10.20859
v 1.345 -4.58 10
v 1.311964 -3.68 9.791413
v 0.6700001 -3.68 10
v 1.216087 -3.68 9.603245
v 1.066755 -3.68 9.453913
v 0.8785866 -3.68 9.358036
v 0.6700001 -3.68 9.325
v 0.4614135 -3.68 9.358037
v 0.2732449 -3.68 9.453914
v 0.1239135 -3.68 9.603245
v 0.02803677 -3.68 9.791413
v -0.005000114 -3.68 10
v 0.02803677 -3.68 10.20859
v 0.1239135 -3.68 10.39676
v 0.2732449 -3.68 10.54609
v 0.4614136 -3.68 10.64196
v 0.6700001 -3.68 10.675
v 0.8785865 -3.68 10.64196
v 1.066755 -3.68 10.54609
v 1.216087 -3.68 10.39676
v 1.311963 -3.68 10.20859
v 1.345 -3.68 10

vn 0.9510568 0 -0.309016
vn 0.9510568 0 -0.309016
vn 0.809017 0 -0.5877854
vn 0.809017 0 -0.5877854
vn 0.5877851 0 -0.8090171
vn 0.5877851 0 -0.8090171
vn 0.3090168 0 -0.9510565
vn 0.3090168 0 -0.9510565
vn 0 0 -1
vn 0 0 -1
vn -0.3090171 0 -0.9510565
vn -0.3090171 0 -0.9510565
vn -0.5877854 0 -0.8090168
vn -0.5877854 0 -0.8090168
vn -0.8090171 0 -0.5877851
vn -0.8090171 0 -0.5877851
vn -0.9510565 0 -0.3090169
vn -0.9510565 0 -0.3090169
vn -1 0 0
vn -1 0 0
vn -1 0 0
vn -1 0 0
vn -0.9510565 0 0.309017
vn -0.9510565 0 0.309017
vn -0.8090169 0 0.5877854
vn -0.8090169 0 0.5877854
vn -0.5877852 0 0.8090171
vn -0.5877852 0 0.8090171
vn -0.3090169 0 0.9510565
vn -0.3090169 0 0.9510565
vn 0 0 1
vn 0 0 1
vn 0.3090171 0 0.9510565
vn 0.3090171 0 0.9510565
vn 0.5877852 0 0.809017
vn 0.5877852 0 0.809017
vn 0.809017 0 0.5877852
vn 0.809017 0 0.5877852
vn 0.9510565 0 0.3090169
vn 0.9510565 0 0.3090169
vn 1 0 0
vn 1 0 0
vn 1 0 0
vn 1 0 0
vn 0.9510568 0 -0.309016
vn 0.9510568 0 -0.309016
vn 0 -1 0
vn 0 -1 0
vn 0 -1 0
vn 0 -1 0
vn 0 -1 0
vn 0 -1 0
vn 0 -1 0
vn 0 -1 0
vn 0 -1 0
vn 0 -1 0
vn 0 -1 0
vn 0 -1 0
vn 0 -1 0
vn 0 -1 0
vn 0 -1 0
vn 0 -1 0
vn 0 -1 0
vn 0 -1 0
vn 0 -1 0
vn 0 -1 0
vn 0 -1 0
vn 0 1 0
vn 0 1 0
vn 0 1 0
vn 0 1 0
vn 0 1 0
vn 0 1 0
vn 0 1 0
vn 0 1 0
vn 0 1 0
vn 0 1 0
vn 0 1 0
vn 0 1 0
vn 0 1 0
vn 0 1 0
vn 0 1 0
vn 0 1 0
vn 0 1 0
vn 0 1 0
vn 0 1 0
vn 0 1 0
vn 0 1 0

vt 0.1005999 0.0004537381
vt 0.1005996 0.9994308
vt 0.2005053 0.9994308
vt 0.2005054 0.0004537381
vt 0.300411 0.9994308
vt 0.300411 0.0004537381
vt 0.4003165 0.9994308
vt 0.4003165 0.0004537381
vt 0.500222 0.9994308
vt 0.500222 0.0004537381
vt 0.6001273 0.9994308
vt 0.6001273 0.0004537381
vt 0.7000328 0.9994308
vt 0.7000327 0.0004537381
vt 0.7999381 0.9994308
vt 0.799938 0.0004537381
vt 0.8998435 0.9994308
vt 0.8998432 0.0004537381
vt 0.9997491 0.9994308
vt 0.999749 0.0004537381
vt 0.0006936856 0.0004537381
vt 0.0006940446 0.9994308
vt 0.1005996 0.9994308
vt 0.1005993 0.0004537381
vt 0.2005051 0.9994308
vt 0.200505 0.0004537381
vt 0.3004106 0.9994308
vt 0.3004106 0.0004537381
vt 0.400316 0.9994308
vt 0.400316 0.0004537381
vt 0.5002215 0.9994308
vt 0.5002215 0.0004537381
vt 0.6001268 0.9994308
vt 0.6001268 0.0004537381
vt 0.7000321 0.9994308
vt 0.7000322 0.0004537381
vt 0.7999371 0.9994308
vt 0.7999375 0.0004537381
vt 0.8998424 0.9994308
vt 0.8998428 0.0004537381
vt 0.9997478 0.9994308
vt 0.9997481 0.0004537381
vt 0.00069427 0.0004537381
vt 0.0006939089 0.9994308
vt 0.1005996 0.9994308
vt 0.1005999 0.0004537381
vt 0.0988569 0.7915539
vt 0.5002239 0.4999443
vt 0.02838877 0.6532523
vt 0.2086136 0.9013107
vt 0.3469154 0.971779
vt 0.500224 0.9960608
vt 0.6535327 0.971779
vt 0.7918344 0.9013106
vt 0.901591 0.7915536
vt 0.9720588 0.6532521
vt 0.9963405 0.4999437
vt 0.9720586 0.3466355
vt 0.9015904 0.2083341
vt 0.7918337 0.09857755
vt 0.653532 0.02810944
vt 0.5002234 0.003827875
vt 0.346915 0.02810972
vt 0.2086136 0.09857795
vt 0.09885708 0.2083347
vt 0.02838913 0.3466361
vt 0.004107505 0.4999442
vt 0.9720596 0.6532523
vt 0.5002245 0.4999442
vt 0.9015915 0.7915539
vt 0.7918347 0.9013107
vt 0.653533 0.971779
vt 0.5002243 0.9960608
vt 0.3469157 0.971779
vt 0.2086142 0.9013106
vt 0.0988576 0.7915537
vt 0.0283896 0.6532522
vt 0.004108027 0.4999439
vt 0.02838971 0.3466356
vt 0.09885782 0.2083341
vt 0.2086144 0.09857755
vt 0.3469159 0.02810938
vt 0.5002242 0.003827723
vt 0.6535327 0.02810941
vt 0.7918344 0.09857755
vt 0.901591 0.2083343
vt 0.9720591 0.3466357
vt 0.9963408 0.4999439

usemtl LegacyMaterial
usemap LegacyMaterial
f 90/90/90 89/89/89 91/91/91
f 91/91/91 89/89/89 92/92/92
f 91/91/91 92/92/92 93/93/93
f 93/93/93 92/92/92 94/94/94
f 93/93/93 94/94/94 95/95/95
f 95/95/95 94/94/94 96/96/96
f 95/95/95 96/96/96 97/97/97
f 97/97/97 96/96/96 98/98/98
f 97/97/97 98/98/98 99/99/99
f 99/99/99 98/98/98 100/100/100
f 99/99/99 100/100/100 101/101/101
f 101/101/101 100/100/100 102/102/102
f 101/101/101 102/102/102 103/103/103
f 103/103/103 102/102/102 104/104/104
f 103/103/103 104/104/104 105/105/105
f 105/105/105 104/104/104 106/106/106
f 105/105/105 106/106/106 107/107/107
f 107/107/107 106/106/106 108/108/108
f 110/110/110 109/109/109 111/111/111
f 111/111/111 109/109/109 112/112/112
f 111/111/111 112/112/112 113/113/113
f 113/113/113 112/112/112 114/114/114
f 113/113/113 114/114/114 115/115/115
f 115/115/115 114/114/114 116/116/116
f 115/115/115 116/116/116 117/117/117
f 117/117/117 116/116/116 118/118/118
f 117/117/117 118/118/118 119/119/119
f 119/119/119 118/118/118 120/120/120
f 119/119/119 120/120/120 121/121/121
f 121/121/121 120/120/120 122/122/122
f 121/121/121 122/122/122 123/123/123
f 123/123/123 122/122/122 124/124/124
f 123/123/123 124/124/124 125/125/125
f 125/125/125 124/124/124 126/126/126
f 125/125/125 126/126/126 127/127/127
f 127/127/127 126/126/126 128/128/128
f 127/127/127 128/128/128 129/129/129
f 129/129/129 128/128/128 130/130/130
f 132/132/132 131/131/131 133/133/133
f 133/133/133 131/131/131 134/134/134
f 136/136/136 135/135/135 137/137/137
f 136/136/136 138/138/138 135/135/135
f 136/136/136 139/139/139 138/138/138
f 136/136/136 140/140/140 139/139/139
f 136/136/136 141/141/141 140/140/140
f 136/136/136 142/142/142 141/141/141
f 136/136/136 143/143/143 142/142/142
f 136/136/136 144/144/144 143/143/143
f 136/136/136 145/145/145 144/144/144
f 136/136/136 146/146/146 145/145/145
f 136/136/136 147/147/147 146/146/146
f 136/136/136 148/148/148 147/147/147
f 136/136/136 149/149/149 148/148/148
f 136/136/136 150/150/150 149/149/149
f 136/136/136 151/151/151 150/150/150
f 136/136/136 152/152/152 151/151/151
f 136/136/136 153/153/153 152/152/152
f 136/136/136 154/154/154 153/153/153
f 136/136/136 155/155/155 154/154/154
f 136/136/136 137/137/137 155/155/155
f 157/157/157 156/156/156 158/158/158
f 157/157/157 158/158/158 159/159/159
f 157/157/157 159/159/159 160/160/160
f 157/157/157 160/160/160 161/161/161
f 157/157/157 161/161/161 162/162/162
f 157/157/157 162/162/162 163/163/163
f 157/157/157 163/163/163 164/164/164
f 157/157/157 164/164/164 165/165/165
f 157/157/157 165/165/165 166/166/166
f 157/157/157 166/166/166 167/167/167
f 157/157/157 167/167/167 168/168/168
f 157/157/157 168/168/168 169/169/169
f 157/157/157 169/169/169 170/170/170
f 157/157/157 170/170/170 171/171/171
f 157/157/157 171/171/171 172/172/172
f 157/157/157 172/172/172 173/173/173
f 157/157/157 173/173/173 174/174/174
f 157/157/157 174/174/174 175/175/175
f 157/157/157 175/175/175 176/176/176
f 157/157/157 176/176/176 156/156/156
