%YAML 1.1
%TAG !u! tag:unity3d.com,2011:
--- !u!114 &11400000
MonoBehaviour:
  m_ObjectHideFlags: 0
  m_PrefabParentObject: {fileID: 0}
  m_PrefabInternal: {fileID: 0}
  m_GameObject: {fileID: 0}
  m_Enabled: 1
  m_EditorHideFlags: 0
  m_Script: {fileID: -1795129195, guid: 75c5bf6a77c1f194996e23d1503ebbd3, type: 3}
  m_Name: Example1-default
  m_EditorClassIdentifier: 
  m_edgeType: 0
  m_gridOrigin:
    m_x: 50
    m_y: 50
    m_z: 50
  m_gridSize: 100
  m_rotationSnapAngle: 0.1
  m_xAxisProperties:
    isVisibleInEditor: 1
    isSnapEnabled: 1
    cellSize: 1
    offset: 0
    rotation: 0
  m_yAxisProperties:
    isVisibleInEditor: 1
    isSnapEnabled: 1
    cellSize: 1
    offset: 0
    rotation: 0
  m_zAxisProperties:
    isVisibleInEditor: 1
    isSnapEnabled: 1
    cellSize: 1
    offset: 0
    rotation: 0
