####
#
# OBJ File Generated by Meshlab
#
####
# Object curvecut.obj
#
# Vertices: 182
# Faces: 260
#
####
mtllib ./curvecut.obj.mtl

vn 0.247210 0.006500 0.968940
v -1.476928 -2.704091 9.894020 0.752941 0.752941 0.752941
vn -0.261199 -0.027300 0.964899
v -1.419526 -2.702785 9.893963 0.752941 0.752941 0.752941
vn 0.670177 0.110196 0.733975
v -1.526042 -2.705214 9.922451 0.752941 0.752941 0.752941
vn -0.696106 -0.048400 0.716306
v -1.368502 -2.701644 9.922338 0.752941 0.752941 0.752941
vn -0.962063 -0.054198 0.267390
v -1.338151 -2.700981 9.971565 0.752941 0.752941 0.752941
vn -0.961352 -0.053303 -0.270115
v -1.338151 -2.700981 10.028430 0.752941 0.752941 0.752941
vn -0.697113 -0.047101 -0.715413
v -1.368503 -2.701644 10.077660 0.752941 0.752941 0.752941
vn -0.262701 -0.026900 -0.964502
v -1.419526 -2.702785 10.106040 0.752941 0.752941 0.752941
vn 0.230794 0.020999 -0.972776
v -1.476928 -2.704091 10.105980 0.752941 0.752941 0.752941
vn 0.681475 0.132895 -0.719674
v -1.526042 -2.705214 10.077550 0.752941 0.752941 0.752941
vn 0.945523 0.190905 -0.263706
v -1.554335 -2.705859 10.028380 0.752941 0.752941 0.752941
vn 0.945563 0.190592 0.263790
v -1.554335 -2.705859 9.971622 0.752941 0.752941 0.752941
vn 0.746295 0.612395 0.260798
v -1.578820 -2.650724 9.971633 0.752941 0.752941 0.752941
vn 0.746114 0.612911 -0.260105
v -1.578820 -2.650724 10.028370 0.752941 0.752941 0.752941
vn 0.215304 0.938219 0.270906
v -1.629739 -2.614846 9.971614 0.752941 0.752941 0.752941
vn 0.220009 0.936136 -0.274311
v -1.629739 -2.614846 10.028390 0.752941 0.752941 0.752941
vn 0.521418 0.417614 -0.744125
v -1.557721 -2.633661 10.077540 0.752941 0.752941 0.752941
vn 0.117497 0.656085 -0.745484
v -1.622948 -2.587332 10.077580 0.752941 0.752941 0.752941
vn 0.113801 0.185101 -0.976108
v -1.567675 -2.556068 10.106030 0.752941 0.752941 0.752941
vn -0.022600 0.244496 -0.969387
v -1.611162 -2.539609 10.106060 0.752941 0.752941 0.752941
vn 0.169491 0.137793 -0.975851
v -1.516369 -2.600388 10.106000 0.752941 0.752941 0.752941
vn 0.177904 0.049101 -0.982822
v -1.483751 -2.659428 10.105980 0.752941 0.752941 0.752941
vn -0.128301 -0.240602 -0.962107
v -1.539749 -2.506159 10.106120 0.752941 0.752941 0.752941
vn -0.118904 -0.259007 -0.958529
v -1.597154 -2.484390 10.106160 0.752941 0.752941 0.752941
vn -0.183908 -0.196308 -0.963141
v -1.490541 -2.541577 10.106100 0.752941 0.752941 0.752941
vn -0.227704 -0.139302 -0.963715
v -1.452523 -2.588339 10.106090 0.752941 0.752941 0.752941
vn -0.257199 -0.073000 -0.963597
v -1.428347 -2.643274 10.106070 0.752941 0.752941 0.752941
vn -0.331897 -0.625294 -0.706294
v -1.514076 -2.462867 10.077740 0.752941 0.752941 0.752941
vn -0.204607 -0.686121 -0.698122
v -1.584198 -2.436477 10.077780 0.752941 0.752941 0.752941
vn -0.478118 -0.511718 -0.713826
v -1.453794 -2.505852 10.077730 0.752941 0.752941 0.752941
vn -0.593491 -0.361894 -0.718889
v -1.407474 -2.562600 10.077720 0.752941 0.752941 0.752941
vn -0.670207 -0.186702 -0.718307
v -1.378447 -2.629263 10.077710 0.752941 0.752941 0.752941
vn -0.452297 -0.852793 -0.261098
v -1.498180 -2.437844 10.028470 0.752941 0.752941 0.752941
vn -0.256198 -0.932192 -0.255698
v -1.576150 -2.408779 10.028480 0.752941 0.752941 0.752941
vn -0.657910 -0.703910 -0.267704
v -1.431106 -2.485203 10.028460 0.752941 0.752941 0.752941
vn -0.822530 -0.499018 -0.272810
v -1.379860 -2.547723 10.028460 0.752941 0.752941 0.752941
vn -0.928033 -0.253309 -0.273110
v -1.348239 -2.621164 10.028450 0.752941 0.752941 0.752941
vn -0.452397 -0.852494 0.261898
v -1.498179 -2.437844 9.971533 0.752941 0.752941 0.752941
vn -0.257510 -0.931936 0.255310
v -1.576149 -2.408779 9.971519 0.752941 0.752941 0.752941
vn -0.657570 -0.703967 0.268388
v -1.431105 -2.485203 9.971537 0.752941 0.752941 0.752941
vn -0.822232 -0.499619 0.272610
v -1.379860 -2.547723 9.971541 0.752941 0.752941 0.752941
vn -0.928228 -0.254208 0.271608
v -1.348239 -2.621165 9.971546 0.752941 0.752941 0.752941
vn -0.332305 -0.625510 0.705912
v -1.514076 -2.462866 9.922257 0.752941 0.752941 0.752941
vn -0.208196 -0.685787 0.697388
v -1.584198 -2.436477 9.922224 0.752941 0.752941 0.752941
vn -0.477894 -0.512393 0.713491
v -1.453794 -2.505852 9.922270 0.752941 0.752941 0.752941
vn -0.592780 -0.362887 0.718975
v -1.407474 -2.562600 9.922281 0.752941 0.752941 0.752941
vn -0.669229 -0.187808 0.718931
v -1.378447 -2.629262 9.922294 0.752941 0.752941 0.752941
vn -0.128596 -0.240992 0.961970
v -1.539750 -2.506159 9.893880 0.752941 0.752941 0.752941
vn -0.124805 -0.258410 0.957939
v -1.597153 -2.484390 9.893839 0.752941 0.752941 0.752941
vn 0.084598 0.164896 0.982676
v -1.567675 -2.556068 9.893973 0.752941 0.752941 0.752941
vn -0.020600 0.227798 0.973491
v -1.611162 -2.539609 9.893937 0.752941 0.752941 0.752941
vn 0.169395 0.137795 0.975868
v -1.516369 -2.600388 9.893998 0.752941 0.752941 0.752941
vn -0.184101 -0.196801 0.963004
v -1.490542 -2.541577 9.893896 0.752941 0.752941 0.752941
vn -0.227293 -0.139595 0.963769
v -1.452523 -2.588339 9.893912 0.752941 0.752941 0.752941
vn 0.204594 0.073698 0.976069
v -1.483751 -2.659428 9.894022 0.752941 0.752941 0.752941
vn -0.256090 -0.073397 0.963862
v -1.428347 -2.643274 9.893929 0.752941 0.752941 0.752941
vn 0.513591 0.427792 0.743787
v -1.557721 -2.633661 9.922463 0.752941 0.752941 0.752941
vn 0.132603 0.667817 0.732419
v -1.622948 -2.587332 9.922417 0.752941 0.752941 0.752941
vn 0.746295 0.612395 0.260798
v -1.578820 -2.650724 9.971633 0.752941 0.752941 0.752941
vn 0.215304 0.938219 0.270906
v -1.629739 -2.614846 9.971614 0.752941 0.752941 0.752941
vn 0.945563 0.190592 0.263790
v -1.554335 -2.705859 9.971622 0.752941 0.752941 0.752941
vn -0.078499 0.257098 0.963192
v -1.704261 -2.538311 9.880371 0.752941 0.752941 0.752941
vn -0.084303 -0.260310 0.961838
v -1.704257 -2.474202 9.880349 0.752941 0.752941 0.752941
vn -0.029400 -0.258702 0.965510
v -1.801257 -2.473426 9.877607 0.752941 0.752941 0.752941
vn -0.029400 0.258702 0.965510
v -1.801257 -2.539016 9.877607 0.752941 0.752941 0.752941
vn -0.080402 0.705816 0.703817
v -1.704202 -2.593818 9.912432 0.752941 0.752941 0.752941
vn -0.029300 0.706803 0.706804
v -1.801257 -2.595818 9.910402 0.752941 0.752941 0.752941
vn -0.029300 -0.706803 0.706804
v -1.801257 -2.416623 9.910402 0.752941 0.752941 0.752941
vn -0.093402 -0.705613 0.702414
v -1.704080 -2.418656 9.912391 0.752941 0.752941 0.752941
vn -0.029200 -0.965515 0.258704
v -1.801257 -2.383829 9.967205 0.752941 0.752941 0.752941
vn -0.099996 -0.961360 0.256490
v -1.703869 -2.386574 9.967928 0.752941 0.752941 0.752941
vn -0.029101 -0.965518 -0.258705
v -1.801257 -2.383829 10.032790 0.752941 0.752941 0.752941
vn -0.100999 -0.961093 -0.257098
v -1.703869 -2.386574 10.032070 0.752941 0.752941 0.752941
vn -0.029200 -0.706805 -0.706806
v -1.801257 -2.416624 10.089600 0.752941 0.752941 0.752941
vn -0.096296 -0.704870 -0.702770
v -1.704080 -2.418656 10.087610 0.752941 0.752941 0.752941
vn -0.029300 -0.258703 -0.965512
v -1.801257 -2.473426 10.122390 0.752941 0.752941 0.752941
vn -0.089497 -0.259192 -0.961670
v -1.704257 -2.474202 10.119650 0.752941 0.752941 0.752941
vn -0.029300 0.258703 -0.965512
v -1.801257 -2.539016 10.122390 0.752941 0.752941 0.752941
vn -0.086002 0.257604 -0.962416
v -1.704261 -2.538311 10.119630 0.752941 0.752941 0.752941
vn -0.029300 0.706803 -0.706804
v -1.801257 -2.595818 10.089600 0.752941 0.752941 0.752941
vn -0.088101 0.704707 -0.704008
v -1.704202 -2.593818 10.087570 0.752941 0.752941 0.752941
vn -0.029300 0.965512 -0.258704
v -1.801257 -2.628613 10.032790 0.752941 0.752941 0.752941
vn -0.090896 0.961755 -0.258388
v -1.704185 -2.625867 10.032050 0.752941 0.752941 0.752941
vn -0.029300 0.965512 0.258704
v -1.801257 -2.628613 9.967205 0.752941 0.752941 0.752941
vn -0.087400 0.962798 0.255700
v -1.704185 -2.625867 9.967947 0.752941 0.752941 0.752941
vn -0.029300 0.706803 0.706804
v -1.801257 -2.595818 9.910402 0.752941 0.752941 0.752941
vn -0.080402 0.705816 0.703817
v -1.704202 -2.593818 9.912432 0.752941 0.752941 0.752941
vn -0.224790 -0.056697 -0.972756
v -1.486691 -2.706045 9.860351 0.752941 0.752941 0.752941
vn 0.271401 0.022500 -0.962203
v -1.411642 -2.704195 9.860436 0.752941 0.752941 0.752941
vn -0.679874 -0.157694 -0.716173
v -1.551039 -2.707668 9.897726 0.752941 0.752941 0.752941
vn 0.697973 0.060398 -0.713573
v -1.344420 -2.702619 9.897895 0.752941 0.752941 0.752941
vn 0.959611 0.072601 -0.271803
v -1.303870 -2.701724 9.962641 0.752941 0.752941 0.752941
vn 0.960633 0.073902 0.267809
v -1.303870 -2.701724 10.037360 0.752941 0.752941 0.752941
vn 0.695883 0.061898 0.715483
v -1.344420 -2.702620 10.102110 0.752941 0.752941 0.752941
vn 0.268006 0.023900 0.963121
v -1.411642 -2.704195 10.139560 0.752941 0.752941 0.752941
vn -0.223205 -0.053101 0.973324
v -1.486691 -2.706045 10.139650 0.752941 0.752941 0.752941
vn -0.679709 -0.155502 0.716809
v -1.551039 -2.707668 10.102270 0.752941 0.752941 0.752941
vn -0.941131 -0.213107 0.262408
v -1.588281 -2.708609 10.037440 0.752941 0.752941 0.752941
vn -0.941102 -0.214100 -0.261701
v -1.588281 -2.708609 9.962558 0.752941 0.752941 0.752941
vn -0.613197 -0.739995 0.276399
v -1.604364 -2.672952 10.037810 0.752941 0.752941 0.752941
vn -0.603981 -0.753675 -0.259192
v -1.604364 -2.672952 9.962190 0.752941 0.752941 0.752941
vn -0.112002 -0.957720 0.265006
v -1.668581 -2.656779 10.040110 0.752941 0.752941 0.752941
vn -0.126897 -0.958872 -0.253893
v -1.668581 -2.656779 9.959888 0.752941 0.752941 0.752941
vn 0.004000 -0.965839 -0.259111
v -1.800393 -2.657236 9.959536 0.752941 0.752941 0.752941
vn 0.002800 -0.966113 0.258104
v -1.800393 -2.657236 10.040460 0.752941 0.752941 0.752941
vn -0.090202 -0.691613 0.716614
v -1.664113 -2.617221 10.109570 0.752941 0.752941 0.752941
vn 0.001600 -0.706906 0.707306
v -1.800393 -2.616772 10.110550 0.752941 0.752941 0.752941
vn -0.002900 -0.237001 0.971505
v -1.656186 -2.548769 10.149610 0.752941 0.752941 0.752941
vn -0.003500 -0.264309 0.964432
v -1.800393 -2.546685 10.151020 0.752941 0.752941 0.752941
vn 0.031699 0.254793 0.966476
v -1.701075 -2.465134 10.153160 0.752941 0.752941 0.752941
vn -0.022399 0.258792 0.965673
v -1.800393 -2.465756 10.151020 0.752941 0.752941 0.752941
vn 0.045402 0.708823 0.703924
v -1.700560 -2.394069 10.112100 0.752941 0.752941 0.752941
vn -0.022201 0.706932 0.706933
v -1.800393 -2.395670 10.110550 0.752941 0.752941 0.752941
vn 0.053403 0.964851 0.257314
v -1.700011 -2.353056 10.041030 0.752941 0.752941 0.752941
vn -0.022100 0.965679 0.258795
v -1.800393 -2.355206 10.040470 0.752941 0.752941 0.752941
vn 0.053098 0.964955 -0.256988
v -1.700011 -2.353056 9.958974 0.752941 0.752941 0.752941
vn -0.022200 0.965702 -0.258701
v -1.800393 -2.355206 9.959535 0.752941 0.752941 0.752941
vn 0.044300 0.709107 -0.703708
v -1.700560 -2.394069 9.887901 0.752941 0.752941 0.752941
vn -0.022399 0.706979 -0.706880
v -1.800393 -2.395670 9.889449 0.752941 0.752941 0.752941
vn 0.023901 0.244913 -0.969251
v -1.701076 -2.465133 9.846841 0.752941 0.752941 0.752941
vn -0.011600 0.249900 -0.968202
v -1.800393 -2.465756 9.848985 0.752941 0.752941 0.752941
vn -0.012500 -0.230191 -0.973065
v -1.656187 -2.548769 9.850393 0.752941 0.752941 0.752941
vn 0.006900 -0.257090 -0.966363
v -1.800393 -2.546685 9.848985 0.752941 0.752941 0.752941
vn -0.111996 -0.688672 -0.716372
v -1.664113 -2.617221 9.890431 0.752941 0.752941 0.752941
vn 0.004000 -0.707001 -0.707201
v -1.800393 -2.616772 9.889449 0.752941 0.752941 0.752941
vn -0.126897 -0.958872 -0.253893
v -1.668581 -2.656779 9.959888 0.752941 0.752941 0.752941
vn 0.004000 -0.965839 -0.259111
v -1.800393 -2.657236 9.959536 0.752941 0.752941 0.752941
vn -0.120897 -0.163696 -0.979075
v -1.527721 -2.610946 9.859042 0.752941 0.752941 0.752941
vn 0.211312 0.205112 -0.955655
v -1.508575 -2.517525 9.857930 0.752941 0.752941 0.752941
vn 0.127297 0.268693 -0.954777
v -1.591829 -2.474522 9.854110 0.752941 0.752941 0.752941
vn 0.263013 0.118006 -0.957548
v -1.432840 -2.614042 9.860470 0.752941 0.752941 0.752941
vn -0.438977 -0.531872 -0.724163
v -1.576276 -2.650192 9.896730 0.752941 0.752941 0.752941
vn -0.126897 -0.958872 -0.253893
v -1.668581 -2.656779 9.959888 0.752941 0.752941 0.752941
vn -0.603981 -0.753675 -0.259192
v -1.604364 -2.672952 9.962190 0.752941 0.752941 0.752941
vn -0.603981 -0.753675 -0.259192
v -1.604364 -2.672952 9.962190 0.752941 0.752941 0.752941
vn -0.941102 -0.214100 -0.261701
v -1.588281 -2.708609 9.962558 0.752941 0.752941 0.752941
vn 0.463883 0.538980 -0.703074
v -1.465905 -2.465222 9.896111 0.752941 0.752941 0.752941
vn 0.230999 0.680997 -0.694898
v -1.573196 -2.409014 9.893283 0.752941 0.752941 0.752941
vn 0.620869 0.738662 -0.262487
v -1.438489 -2.435081 9.962000 0.752941 0.752941 0.752941
vn 0.293512 0.921536 -0.254210
v -1.561045 -2.371238 9.960955 0.752941 0.752941 0.752941
vn 0.619976 0.738770 0.264290
v -1.438489 -2.435080 10.038000 0.752941 0.752941 0.752941
vn 0.294495 0.920783 0.255796
v -1.561046 -2.371238 10.039050 0.752941 0.752941 0.752941
vn 0.462405 0.540205 0.703108
v -1.465905 -2.465222 10.103890 0.752941 0.752941 0.752941
vn 0.233001 0.680103 0.695104
v -1.573196 -2.409014 10.106720 0.752941 0.752941 0.752941
vn 0.206902 0.206101 0.956407
v -1.508575 -2.517526 10.142070 0.752941 0.752941 0.752941
vn 0.130802 0.265803 0.955112
v -1.591829 -2.474522 10.145890 0.752941 0.752941 0.752941
vn -0.128800 -0.163500 0.978099
v -1.527721 -2.610946 10.140960 0.752941 0.752941 0.752941
vn -0.453702 -0.515102 0.727203
v -1.576276 -2.650192 10.103270 0.752941 0.752941 0.752941
vn 0.260602 0.118001 0.958208
v -1.432841 -2.614042 10.139530 0.752941 0.752941 0.752941
vn 0.634083 0.299091 0.713080
v -1.370050 -2.588357 10.102030 0.752941 0.752941 0.752941
vn 0.873732 0.403914 0.271010
v -1.330726 -2.573570 10.037320 0.752941 0.752941 0.752941
vn 0.874445 0.401621 -0.272114
v -1.330726 -2.573570 9.962679 0.752941 0.752941 0.752941
vn 0.636731 0.295214 -0.712335
v -1.370050 -2.588356 9.897970 0.752941 0.752941 0.752941
vn 0.513591 0.427792 0.743787
v -1.557721 -2.633661 9.922463 0.752941 0.752941 0.752941
vn 0.746295 0.612395 0.260798
v -1.578820 -2.650724 9.971633 0.752941 0.752941 0.752941
vn -0.999577 -0.007500 -0.028099
v -1.801257 -2.539016 9.877607 0.752941 0.752941 0.752941
vn -0.999577 -0.007500 -0.028099
v -1.800393 -2.546685 9.848985 0.752941 0.752941 0.752941
vn -0.999577 0.007500 -0.028099
v -1.800393 -2.465756 9.848985 0.752941 0.752941 0.752941
vn -0.999577 0.007500 -0.028099
v -1.801257 -2.473426 9.877607 0.752941 0.752941 0.752941
vn -0.999576 -0.020599 -0.020600
v -1.801257 -2.595818 9.910402 0.752941 0.752941 0.752941
vn -0.999576 -0.020599 -0.020600
v -1.800393 -2.616772 9.889449 0.752941 0.752941 0.752941
vn -0.999577 -0.028099 -0.007500
v -1.801257 -2.628613 9.967205 0.752941 0.752941 0.752941
vn -0.999577 -0.028099 -0.007500
v -1.800393 -2.657236 9.959536 0.752941 0.752941 0.752941
vn -0.999577 -0.028099 0.007500
v -1.801257 -2.628613 10.032790 0.752941 0.752941 0.752941
vn -0.999577 -0.028099 0.007500
v -1.800393 -2.657236 10.040460 0.752941 0.752941 0.752941
vn -0.999576 -0.020599 0.020599
v -1.801257 -2.595818 10.089600 0.752941 0.752941 0.752941
vn -0.999576 -0.020599 0.020599
v -1.800393 -2.616772 10.110550 0.752941 0.752941 0.752941
vn -0.999577 -0.007500 0.028099
v -1.801257 -2.539016 10.122390 0.752941 0.752941 0.752941
vn -0.999577 -0.007500 0.028099
v -1.800393 -2.546685 10.151020 0.752941 0.752941 0.752941
vn -0.999577 0.007500 0.028099
v -1.801257 -2.473426 10.122390 0.752941 0.752941 0.752941
vn -0.999577 0.007500 0.028099
v -1.800393 -2.465756 10.151020 0.752941 0.752941 0.752941
vn -0.999576 0.020599 0.020599
v -1.801257 -2.416624 10.089600 0.752941 0.752941 0.752941
vn -0.999576 0.020599 0.020599
v -1.800393 -2.395670 10.110550 0.752941 0.752941 0.752941
vn -0.999577 0.028099 0.007500
v -1.801257 -2.383829 10.032790 0.752941 0.752941 0.752941
vn -0.999577 0.028099 0.007500
v -1.800393 -2.355206 10.040470 0.752941 0.752941 0.752941
vn -0.999577 0.028099 -0.007500
v -1.801257 -2.383829 9.967205 0.752941 0.752941 0.752941
vn -0.999577 0.028099 -0.007500
v -1.800393 -2.355206 9.959535 0.752941 0.752941 0.752941
vn -0.999576 0.020599 -0.020600
v -1.801257 -2.416623 9.910402 0.752941 0.752941 0.752941
vn -0.999576 0.020599 -0.020600
v -1.800393 -2.395670 9.889449 0.752941 0.752941 0.752941
vn -0.080402 0.705816 0.703817
v -1.704202 -2.593818 9.912432 0.752941 0.752941 0.752941
vn 0.132603 0.667817 0.732419
v -1.622948 -2.587332 9.922417 0.752941 0.752941 0.752941
vn 0.215304 0.938219 0.270906
v -1.629739 -2.614846 9.971614 0.752941 0.752941 0.752941
# 182 vertices, 0 vertices normals


usemtl material_0
vt 0.381400 1.047600
vt 0.302600 1.030500
vt 0.312200 0.961000
f 11/1/11 12/2/12 13/3/13
vt 0.394900 0.962500
f 14/4/14 11/1/11 13/3/13
vt 0.456500 1.080300
f 10/5/10 11/1/11 14/4/14
vt 0.306600 0.892200
f 14/4/14 13/3/13 15/6/15
vt 0.388900 0.875400
f 16/7/16 14/4/14 15/6/15
vt 0.479100 0.968100
f 17/8/17 14/4/14 16/7/16
f 17/8/17 10/5/10 14/4/14
vt 0.528600 1.128900
f 9/9/9 10/5/10 17/8/17
vt 0.472500 0.851200
f 18/10/18 17/8/17 16/7/16
vt 0.565400 0.882100
f 19/11/19 17/8/17 18/10/18
vt 0.554800 0.819700
f 20/12/20 19/11/19 18/10/18
vt 0.566000 0.978100
f 19/11/19 21/13/21 17/8/17
vt 0.551500 1.071900
f 21/13/21 22/14/22 17/8/17
f 22/14/22 9/9/9 17/8/17
vt 0.645500 0.866800
f 23/15/23 19/11/19 20/12/20
vt 0.634800 0.786700
f 24/16/24 23/15/23 20/12/20
vt 0.647900 0.947900
f 25/17/25 21/13/21 19/11/19
f 23/15/23 25/17/25 19/11/19
vt 0.643300 1.028900
f 25/17/25 26/18/26 21/13/21
vt 0.629800 1.108500
f 27/19/27 22/14/22 21/13/21
f 26/18/26 27/19/27 21/13/21
vt 0.602800 1.183800
f 8/20/8 9/9/9 22/14/22
f 27/19/27 8/20/8 22/14/22
vt 0.719400 0.854600
f 28/21/28 23/15/23 24/16/24
vt 0.711900 0.759600
f 29/22/29 28/21/28 24/16/24
vt 0.720600 0.949400
f 30/23/30 25/17/25 23/15/23
f 28/21/28 30/23/30 23/15/23
vt 0.717100 1.044200
f 31/24/31 26/18/26 25/17/25
f 30/23/30 31/24/31 25/17/25
vt 0.706700 1.138800
f 32/25/32 27/19/27 26/18/26
f 31/24/31 32/25/32 26/18/26
vt 0.684000 1.232000
f 7/26/7 8/20/8 27/19/27
f 32/25/32 7/26/7 27/19/27
vt 0.787900 0.848000
f 33/27/33 28/21/28 29/22/29
vt 0.786200 0.744700
f 34/28/34 33/27/33 29/22/29
vt 0.787600 0.950400
f 35/29/35 30/23/30 28/21/28
f 33/27/33 35/29/35 28/21/28
vt 0.786000 1.052800
f 36/30/36 31/24/31 30/23/30
f 35/29/35 36/30/36 30/23/30
vt 0.781800 1.156100
f 37/31/37 32/25/32 31/24/31
f 36/30/36 37/31/37 31/24/31
vt 0.773000 1.260500
f 6/32/6 7/26/7 32/25/32
f 37/31/37 6/32/6 32/25/32
vt 0.854200 0.848500
f 38/33/38 33/27/33 34/28/34
vt 0.859100 0.745300
f 39/34/39 38/33/38 34/28/34
vt 0.852300 0.951000
f 40/35/40 35/29/35 33/27/33
f 38/33/38 40/35/40 33/27/33
vt 0.852800 1.053500
f 41/36/41 36/30/36 35/29/35
f 40/35/40 41/36/41 35/29/35
vt 0.856400 1.156800
f 42/37/42 37/31/37 36/30/36
f 41/36/41 42/37/42 36/30/36
vt 0.865000 1.261400
f 5/38/5 6/32/6 37/31/37
f 42/37/42 5/38/5 37/31/37
vt 0.922300 0.856200
f 43/39/43 38/33/38 39/34/39
vt 0.932800 0.761300
f 44/40/44 43/39/43 39/34/39
vt 0.919000 0.951100
f 45/41/45 40/35/40 38/33/38
f 43/39/43 45/41/45 38/33/38
vt 0.921400 1.046100
f 46/42/46 41/36/41 40/35/40
f 45/41/45 46/42/46 40/35/40
vt 0.931400 1.141000
f 47/43/47 42/37/42 41/36/41
f 46/42/46 47/43/47 41/36/41
vt 0.953600 1.234400
f 4/44/4 5/38/5 42/37/42
f 47/43/47 4/44/4 42/37/42
vt 0.995000 0.869800
f 48/45/48 43/39/43 44/40/44
vt 1.008500 0.789800
f 49/46/49 48/45/48 44/40/44
vt 1.072900 0.886800
f 48/45/48 49/46/49 50/47/50
vt 1.085900 0.824700
f 49/46/49 51/48/51 50/47/50
vt 1.070700 0.983000
f 48/45/48 50/47/50 52/49/52
vt 0.990800 0.951000
f 53/50/53 48/45/48 52/49/52
f 53/50/53 45/41/45 43/39/43
f 48/45/48 53/50/53 43/39/43
vt 0.994600 1.032300
f 54/51/54 53/50/53 52/49/52
f 54/51/54 46/42/46 45/41/45
f 53/50/53 54/51/54 45/41/45
vt 1.085600 1.077000
f 54/51/54 52/49/52 55/52/55
vt 1.007900 1.112200
f 56/53/56 54/51/54 55/52/55
f 56/53/56 47/43/47 46/42/46
f 54/51/54 56/53/56 46/42/46
vt 1.109200 1.134000
f 56/53/56 55/52/55 1/54/1
vt 1.034900 1.187800
f 2/55/2 56/53/56 1/54/1
f 2/55/2 4/44/4 47/43/47
f 56/53/56 2/55/2 47/43/47
vt 1.155500 0.974400
f 57/56/57 50/47/50 51/48/51
f 57/56/57 52/49/52 50/47/50
f 57/56/57 55/52/55 52/49/52
vt 1.163800 0.859000
f 58/57/58 57/56/57 51/48/51
vt 1.180800 1.085400
f 3/58/3 1/54/1 55/52/55
f 57/56/57 3/58/3 55/52/55
vt 1.233300 0.919700
f 59/59/59 57/56/57 58/57/58
vt 1.240600 0.886500
f 60/60/60 59/59/59 58/57/58
vt 1.253100 1.047000
f 61/61/61 3/58/3 57/56/57
vt 1.141400 0.708400
f 51/48/51 49/46/49 62/62/62
vt 1.061400 0.656200
f 49/46/49 63/63/63 62/62/62
vt 1.113800 0.547800
f 63/63/63 64/64/64 62/62/62
vt 1.201500 0.603400
f 64/64/64 65/65/65 62/62/62
vt 1.217900 0.759100
f 66/66/66 62/62/62 65/65/65
vt 1.281000 0.656000
f 67/67/67 66/66/66 65/65/65
vt 1.010300 0.496900
f 64/64/64 63/63/63 68/68/68
vt 0.973100 0.610600
f 63/63/63 69/69/69 68/68/68
vt 0.890100 0.464800
f 68/68/68 69/69/69 70/70/70
vt 0.875800 0.583100
f 69/69/69 71/71/71 70/70/70
vt 0.762600 0.463700
f 70/70/70 71/71/71 72/72/72
vt 0.774300 0.582200
f 71/71/71 73/73/73 72/72/72
vt 0.642800 0.493200
f 72/72/72 73/73/73 74/74/74
vt 0.676700 0.607900
f 73/73/73 75/75/75 74/74/74
vt 0.540700 0.540800
f 74/74/74 75/75/75 76/76/76
vt 0.588200 0.651300
f 75/75/75 77/77/77 76/76/76
vt 0.456100 0.591000
f 76/76/76 77/77/77 78/78/78
vt 0.507800 0.700300
f 77/77/77 79/79/79 78/78/78
vt 0.381100 0.633300
f 78/78/78 79/79/79 80/80/80
vt 0.431000 0.744000
f 79/79/79 81/81/81 80/80/80
vt 0.306100 0.665500
f 80/80/80 81/81/81 82/82/82
vt 0.352900 0.777300
f 81/81/81 83/83/83 82/82/82
vt 0.224400 0.694200
f 82/82/82 83/83/83 84/84/84
vt 0.271100 0.804400
f 83/83/83 85/85/85 84/84/84
vt 0.141600 0.727300
f 84/84/84 85/85/85 86/86/86
vt 0.188700 0.837400
f 85/85/85 87/87/87 86/86/86
f 15/6/15 85/85/85 83/83/83
f 16/7/16 15/6/15 83/83/83
f 16/7/16 83/83/83 81/81/81
f 18/10/18 16/7/16 81/81/81
f 18/10/18 81/81/81 79/79/79
f 20/12/20 18/10/18 79/79/79
f 20/12/20 79/79/79 77/77/77
f 24/16/24 20/12/20 77/77/77
f 24/16/24 77/77/77 75/75/75
f 29/22/29 24/16/24 75/75/75
f 29/22/29 75/75/75 73/73/73
f 34/28/34 29/22/29 73/73/73
f 34/28/34 73/73/73 71/71/71
f 39/34/39 34/28/34 71/71/71
f 39/34/39 71/71/71 69/69/69
f 44/40/44 39/34/39 69/69/69
f 44/40/44 69/69/69 63/63/63
f 49/46/49 44/40/44 63/63/63
vt 0.727300 0.158900
vt 0.716100 0.087700
vt 0.818700 0.140900
f 98/88/98 100/89/100 99/90/99
vt 0.811600 0.086100
f 100/89/100 101/91/101 99/90/99
vt 0.737000 -0.031300
f 100/89/100 102/92/102 101/91/101
vt 0.831500 -0.008800
f 102/92/102 103/93/103 101/91/101
vt 0.891800 -0.164000
f 104/94/104 103/93/103 102/92/102
vt 0.799400 -0.193400
f 105/95/105 104/94/104 102/92/102
vt 0.644300 -0.063200
f 105/95/105 102/92/102 106/96/106
f 106/96/106 102/92/102 100/89/100
vt 0.715500 -0.228200
f 107/97/107 105/95/105 106/96/106
vt 0.553100 -0.106300
f 107/97/107 106/96/106 108/98/108
vt 0.631900 -0.276400
f 109/99/109 107/97/107 108/98/108
vt 0.486000 -0.221700
f 109/99/109 108/98/108 110/100/110
vt 0.537100 -0.334300
f 111/101/111 109/99/109 110/100/110
vt 0.385500 -0.272200
f 111/101/111 110/100/110 112/102/112
vt 0.422200 -0.389600
f 113/103/113 111/101/111 112/102/112
vt 0.274400 -0.302100
f 113/103/113 112/102/112 114/104/114
vt 0.287000 -0.423800
f 115/105/115 113/103/113 114/104/114
vt 0.158500 -0.301000
f 115/105/115 114/104/114 116/106/116
vt 0.142900 -0.422500
f 117/107/117 115/105/115 116/106/116
vt 0.047700 -0.269000
f 117/107/117 116/106/116 118/108/118
vt 0.007400 -0.385200
f 119/109/119 117/107/117 118/108/118
vt -0.052200 -0.215900
f 119/109/119 118/108/118 120/110/120
vt -0.108700 -0.326000
f 121/111/121 119/109/119 120/110/120
vt -0.113500 -0.098200
f 121/111/121 120/110/120 122/112/122
vt -0.206700 -0.261200
f 123/113/123 121/111/121 122/112/122
vt -0.200700 -0.048700
f 123/113/123 122/112/122 124/114/124
vt -0.295300 -0.199900
f 125/115/125 123/113/123 124/114/124
vt -0.312400 -0.038500
f 125/115/125 124/114/124 126/116/126
vt -0.380600 -0.142700
f 127/117/127 125/115/125 126/116/126
vt -0.073700 0.112800
f 124/114/124 122/112/122 128/118/128
vt 0.020800 0.041200
f 129/119/129 128/118/128 122/112/122
vt 0.003900 -0.081500
f 130/120/130 129/119/129 122/112/122
f 130/120/130 122/112/122 120/110/120
vt 0.011100 0.206100
f 131/121/131 128/118/128 129/119/129
vt -0.025700 0.322800
f 131/121/131 89/122/89 128/118/128
vt -0.109800 0.259900
f 89/122/89 88/123/88 128/118/128
vt -0.165800 0.102700
f 132/124/132 124/114/124 128/118/128
f 132/124/132 128/118/128 88/123/88
vt -0.190500 0.202300
f 90/125/90 132/124/132 88/123/88
vt -0.261400 0.030600
f 133/126/133 124/114/124 132/124/132
vt -0.255200 0.057400
f 134/127/134 133/126/133 132/124/132
vt -0.260900 0.131100
f 135/128/135 132/124/132 90/125/90
vt -0.271500 0.155900
f 136/129/136 135/128/135 90/125/90
vt 0.104800 0.033800
f 129/119/129 130/120/130 137/130/137
vt 0.091100 -0.114000
f 130/120/130 138/131/138 137/130/137
vt 0.183300 0.029600
f 137/130/137 138/131/138 139/132/139
vt 0.176600 -0.132400
f 138/131/138 140/133/140 139/132/139
vt 0.259800 0.028900
f 139/132/139 140/133/140 141/134/141
vt 0.261400 -0.133100
f 140/133/140 142/135/142 141/134/141
vt 0.338900 0.031800
f 141/134/141 142/135/142 143/136/143
vt 0.347800 -0.116100
f 142/135/142 144/137/144 143/136/143
vt 0.424500 0.037500
f 143/136/143 144/137/144 145/138/145
vt 0.437100 -0.085300
f 144/137/144 146/139/146 145/138/145
vt 0.522600 0.106600
f 145/138/145 146/139/146 147/140/147
f 146/139/146 108/98/108 147/140/147
vt 0.618700 0.094800
f 147/140/147 108/98/108 148/141/148
f 108/98/108 106/96/106 148/141/148
f 148/141/148 106/96/106 100/89/100
f 148/141/148 100/89/100 98/88/98
vt 0.640300 0.196700
f 97/142/97 148/141/148 98/88/98
f 147/140/147 148/141/148 97/142/97
vt 0.557800 0.253600
f 96/143/96 147/140/147 97/142/97
vt 0.436500 0.201600
f 149/144/149 145/138/145 147/140/147
f 149/144/149 147/140/147 96/143/96
f 143/136/143 145/138/145 149/144/149
vt 0.473200 0.317800
f 95/145/95 149/144/149 96/143/96
vt 0.348800 0.228700
f 150/146/150 143/136/143 149/144/149
f 150/146/150 149/144/149 95/145/95
vt 0.380100 0.374200
f 94/147/94 150/146/150 95/145/95
f 141/134/141 143/136/143 150/146/150
vt 0.264600 0.244100
f 151/148/151 141/134/141 150/146/150
f 151/148/151 150/146/150 94/147/94
vt 0.277200 0.407700
f 93/149/93 151/148/151 94/147/94
f 139/132/139 141/134/141 151/148/151
vt 0.181700 0.244900
f 152/150/152 139/132/139 151/148/151
f 152/150/152 151/148/151 93/149/93
vt 0.170100 0.408700
f 92/151/92 152/150/152 93/149/93
f 137/130/137 139/132/139 152/150/152
vt 0.097900 0.231300
f 153/152/153 137/130/137 152/150/152
f 153/152/153 152/150/152 92/151/92
vt 0.067400 0.377300
f 91/153/91 153/152/153 92/151/92
f 129/119/129 137/130/137 153/152/153
f 131/121/131 129/119/129 153/152/153
f 131/121/131 153/152/153 91/153/91
f 89/122/89 131/121/131 91/153/91
vt 1.240700 1.015900
f 155/154/155 61/61/61 154/56/154
vt 0.171200 1.026700
vt 0.109400 1.107900
vt 0.095400 1.089800
f 158/155/158 157/156/157 156/157/156
vt 0.150000 1.018000
f 159/158/159 158/155/158 156/157/156
vt 0.012200 1.124600
f 160/159/160 156/157/156 157/156/157
vt 0.015300 1.147300
f 161/160/161 160/159/160 157/156/157
vt -0.077200 1.113100
f 162/161/162 160/159/160 161/160/161
vt -0.085900 1.134300
f 163/162/163 162/161/162 161/160/161
vt -0.149000 1.058500
f 164/163/164 162/161/162 163/162/163
vt -0.167100 1.072500
f 165/164/165 164/163/164 163/162/163
vt -0.183800 0.975300
f 166/165/166 164/163/164 165/164/165
vt -0.206500 0.978300
f 167/166/167 166/165/166 165/164/165
vt -0.172300 0.885800
f 168/167/168 166/165/166 167/166/167
vt -0.193500 0.877100
f 169/168/169 168/167/168 167/166/167
vt -0.117700 0.814100
f 170/169/170 168/167/168 169/168/169
vt -0.131700 0.796000
f 171/170/171 170/169/170 169/168/169
vt -0.034500 0.779300
f 172/171/172 170/169/170 171/170/171
vt -0.037600 0.756600
f 173/172/173 172/171/172 171/170/171
vt 0.055000 0.790700
f 174/173/174 172/171/172 173/172/173
vt 0.063700 0.769600
f 175/174/175 174/173/174 173/172/173
vt 0.126700 0.845400
f 176/175/176 174/173/174 175/174/175
vt 0.144800 0.831400
f 177/176/177 176/175/176 175/174/175
vt 0.161500 0.928600
f 178/177/178 176/175/176 177/176/177
vt 0.184200 0.925500
f 179/178/179 178/177/178 177/176/177
f 159/158/159 178/177/178 179/178/179
f 158/155/158 159/158/159 179/178/179
f 51/48/51 62/62/62 66/66/66
f 58/57/58 51/48/51 66/66/66
vt 0.243300 0.925700
vt 0.190100 0.840300
f 181/179/181 180/180/180 85/85/85
vt 0.312900 0.888900
f 182/181/182 181/179/181 85/85/85
f 146/139/146 110/100/110 108/98/108
f 112/102/112 110/100/110 146/139/146
f 144/137/144 112/102/112 146/139/146
f 114/104/114 112/102/112 144/137/144
f 142/135/142 114/104/114 144/137/144
f 116/106/116 114/104/114 142/135/142
f 140/133/140 116/106/116 142/135/142
f 118/108/118 116/106/116 140/133/140
f 138/131/138 118/108/118 140/133/140
f 120/110/120 118/108/118 138/131/138
f 130/120/130 120/110/120 138/131/138
# 260 faces, 181 coords texture

# End of File
