999
DXF created by VCGLib
0
SECTION
2
HEADER
9
$ACADVER
1
AC1009
9
$INSBASE
10
0.0
20
0.0
30
0.0
9
$EXTMIN
10
-3.070000
20
-3.070000
9
$EXTMAX
10
10.153160
20
10.153160
9
$LINMIN
10
-3.070000
20
-3.070000
9
$LINMAX
10
10.153160
20
10.153160
0
ENDSEC
0
SECTION
2
ENTITIES
0
3DFACE
8
0
10
-1.554335
20
-2.705859
30
10.028380
11
-1.554335
21
-2.705859
31
9.971622
12
-1.578820
22
-2.650724
32
9.971633
13
-1.578820
23
-2.650724
33
9.971633
0
3DFACE
8
0
10
-1.578820
20
-2.650724
30
10.028370
11
-1.554335
21
-2.705859
31
10.028380
12
-1.578820
22
-2.650724
32
9.971633
13
-1.578820
23
-2.650724
33
9.971633
0
3DFACE
8
0
10
-1.526042
20
-2.705214
30
10.077550
11
-1.554335
21
-2.705859
31
10.028380
12
-1.578820
22
-2.650724
32
10.028370
13
-1.578820
23
-2.650724
33
10.028370
0
3DFACE
8
0
10
-1.578820
20
-2.650724
30
10.028370
11
-1.578820
21
-2.650724
31
9.971633
12
-1.629739
22
-2.614846
32
9.971614
13
-1.629739
23
-2.614846
33
9.971614
0
3DFACE
8
0
10
-1.629739
20
-2.614846
30
10.028390
11
-1.578820
21
-2.650724
31
10.028370
12
-1.629739
22
-2.614846
32
9.971614
13
-1.629739
23
-2.614846
33
9.971614
0
3DFACE
8
0
10
-1.557721
20
-2.633661
30
10.077540
11
-1.578820
21
-2.650724
31
10.028370
12
-1.629739
22
-2.614846
32
10.028390
13
-1.629739
23
-2.614846
33
10.028390
0
3DFACE
8
0
10
-1.557721
20
-2.633661
30
10.077540
11
-1.526042
21
-2.705214
31
10.077550
12
-1.578820
22
-2.650724
32
10.028370
13
-1.578820
23
-2.650724
33
10.028370
0
3DFACE
8
0
10
-1.476928
20
-2.704091
30
10.105980
11
-1.526042
21
-2.705214
31
10.077550
12
-1.557721
22
-2.633661
32
10.077540
13
-1.557721
23
-2.633661
33
10.077540
0
3DFACE
8
0
10
-1.622948
20
-2.587332
30
10.077580
11
-1.557721
21
-2.633661
31
10.077540
12
-1.629739
22
-2.614846
32
10.028390
13
-1.629739
23
-2.614846
33
10.028390
0
3DFACE
8
0
10
-1.567675
20
-2.556068
30
10.106030
11
-1.557721
21
-2.633661
31
10.077540
12
-1.622948
22
-2.587332
32
10.077580
13
-1.622948
23
-2.587332
33
10.077580
0
3DFACE
8
0
10
-1.611162
20
-2.539609
30
10.106060
11
-1.567675
21
-2.556068
31
10.106030
12
-1.622948
22
-2.587332
32
10.077580
13
-1.622948
23
-2.587332
33
10.077580
0
3DFACE
8
0
10
-1.567675
20
-2.556068
30
10.106030
11
-1.516369
21
-2.600388
31
10.106000
12
-1.557721
22
-2.633661
32
10.077540
13
-1.557721
23
-2.633661
33
10.077540
0
3DFACE
8
0
10
-1.516369
20
-2.600388
30
10.106000
11
-1.483751
21
-2.659428
31
10.105980
12
-1.557721
22
-2.633661
32
10.077540
13
-1.557721
23
-2.633661
33
10.077540
0
3DFACE
8
0
10
-1.483751
20
-2.659428
30
10.105980
11
-1.476928
21
-2.704091
31
10.105980
12
-1.557721
22
-2.633661
32
10.077540
13
-1.557721
23
-2.633661
33
10.077540
0
3DFACE
8
0
10
-1.539749
20
-2.506159
30
10.106120
11
-1.567675
21
-2.556068
31
10.106030
12
-1.611162
22
-2.539609
32
10.106060
13
-1.611162
23
-2.539609
33
10.106060
0
3DFACE
8
0
10
-1.597154
20
-2.484390
30
10.106160
11
-1.539749
21
-2.506159
31
10.106120
12
-1.611162
22
-2.539609
32
10.106060
13
-1.611162
23
-2.539609
33
10.106060
0
3DFACE
8
0
10
-1.490541
20
-2.541577
30
10.106100
11
-1.516369
21
-2.600388
31
10.106000
12
-1.567675
22
-2.556068
32
10.106030
13
-1.567675
23
-2.556068
33
10.106030
0
3DFACE
8
0
10
-1.539749
20
-2.506159
30
10.106120
11
-1.490541
21
-2.541577
31
10.106100
12
-1.567675
22
-2.556068
32
10.106030
13
-1.567675
23
-2.556068
33
10.106030
0
3DFACE
8
0
10
-1.490541
20
-2.541577
30
10.106100
11
-1.452523
21
-2.588339
31
10.106090
12
-1.516369
22
-2.600388
32
10.106000
13
-1.516369
23
-2.600388
33
10.106000
0
3DFACE
8
0
10
-1.428347
20
-2.643274
30
10.106070
11
-1.483751
21
-2.659428
31
10.105980
12
-1.516369
22
-2.600388
32
10.106000
13
-1.516369
23
-2.600388
33
10.106000
0
3DFACE
8
0
10
-1.452523
20
-2.588339
30
10.106090
11
-1.428347
21
-2.643274
31
10.106070
12
-1.516369
22
-2.600388
32
10.106000
13
-1.516369
23
-2.600388
33
10.106000
0
3DFACE
8
0
10
-1.419526
20
-2.702785
30
10.106040
11
-1.476928
21
-2.704091
31
10.105980
12
-1.483751
22
-2.659428
32
10.105980
13
-1.483751
23
-2.659428
33
10.105980
0
3DFACE
8
0
10
-1.428347
20
-2.643274
30
10.106070
11
-1.419526
21
-2.702785
31
10.106040
12
-1.483751
22
-2.659428
32
10.105980
13
-1.483751
23
-2.659428
33
10.105980
0
3DFACE
8
0
10
-1.514076
20
-2.462867
30
10.077740
11
-1.539749
21
-2.506159
31
10.106120
12
-1.597154
22
-2.484390
32
10.106160
13
-1.597154
23
-2.484390
33
10.106160
0
3DFACE
8
0
10
-1.584198
20
-2.436477
30
10.077780
11
-1.514076
21
-2.462867
31
10.077740
12
-1.597154
22
-2.484390
32
10.106160
13
-1.597154
23
-2.484390
33
10.106160
0
3DFACE
8
0
10
-1.453794
20
-2.505852
30
10.077730
11
-1.490541
21
-2.541577
31
10.106100
12
-1.539749
22
-2.506159
32
10.106120
13
-1.539749
23
-2.506159
33
10.106120
0
3DFACE
8
0
10
-1.514076
20
-2.462867
30
10.077740
11
-1.453794
21
-2.505852
31
10.077730
12
-1.539749
22
-2.506159
32
10.106120
13
-1.539749
23
-2.506159
33
10.106120
0
3DFACE
8
0
10
-1.407474
20
-2.562600
30
10.077720
11
-1.452523
21
-2.588339
31
10.106090
12
-1.490541
22
-2.541577
32
10.106100
13
-1.490541
23
-2.541577
33
10.106100
0
3DFACE
8
0
10
-1.453794
20
-2.505852
30
10.077730
11
-1.407474
21
-2.562600
31
10.077720
12
-1.490541
22
-2.541577
32
10.106100
13
-1.490541
23
-2.541577
33
10.106100
0
3DFACE
8
0
10
-1.378447
20
-2.629263
30
10.077710
11
-1.428347
21
-2.643274
31
10.106070
12
-1.452523
22
-2.588339
32
10.106090
13
-1.452523
23
-2.588339
33
10.106090
0
3DFACE
8
0
10
-1.407474
20
-2.562600
30
10.077720
11
-1.378447
21
-2.629263
31
10.077710
12
-1.452523
22
-2.588339
32
10.106090
13
-1.452523
23
-2.588339
33
10.106090
0
3DFACE
8
0
10
-1.368503
20
-2.701644
30
10.077660
11
-1.419526
21
-2.702785
31
10.106040
12
-1.428347
22
-2.643274
32
10.106070
13
-1.428347
23
-2.643274
33
10.106070
0
3DFACE
8
0
10
-1.378447
20
-2.629263
30
10.077710
11
-1.368503
21
-2.701644
31
10.077660
12
-1.428347
22
-2.643274
32
10.106070
13
-1.428347
23
-2.643274
33
10.106070
0
3DFACE
8
0
10
-1.498180
20
-2.437844
30
10.028470
11
-1.514076
21
-2.462867
31
10.077740
12
-1.584198
22
-2.436477
32
10.077780
13
-1.584198
23
-2.436477
33
10.077780
0
3DFACE
8
0
10
-1.576150
20
-2.408779
30
10.028480
11
-1.498180
21
-2.437844
31
10.028470
12
-1.584198
22
-2.436477
32
10.077780
13
-1.584198
23
-2.436477
33
10.077780
0
3DFACE
8
0
10
-1.431106
20
-2.485203
30
10.028460
11
-1.453794
21
-2.505852
31
10.077730
12
-1.514076
22
-2.462867
32
10.077740
13
-1.514076
23
-2.462867
33
10.077740
0
3DFACE
8
0
10
-1.498180
20
-2.437844
30
10.028470
11
-1.431106
21
-2.485203
31
10.028460
12
-1.514076
22
-2.462867
32
10.077740
13
-1.514076
23
-2.462867
33
10.077740
0
3DFACE
8
0
10
-1.379860
20
-2.547723
30
10.028460
11
-1.407474
21
-2.562600
31
10.077720
12
-1.453794
22
-2.505852
32
10.077730
13
-1.453794
23
-2.505852
33
10.077730
0
3DFACE
8
0
10
-1.431106
20
-2.485203
30
10.028460
11
-1.379860
21
-2.547723
31
10.028460
12
-1.453794
22
-2.505852
32
10.077730
13
-1.453794
23
-2.505852
33
10.077730
0
3DFACE
8
0
10
-1.348239
20
-2.621164
30
10.028450
11
-1.378447
21
-2.629263
31
10.077710
12
-1.407474
22
-2.562600
32
10.077720
13
-1.407474
23
-2.562600
33
10.077720
0
3DFACE
8
0
10
-1.379860
20
-2.547723
30
10.028460
11
-1.348239
21
-2.621164
31
10.028450
12
-1.407474
22
-2.562600
32
10.077720
13
-1.407474
23
-2.562600
33
10.077720
0
3DFACE
8
0
10
-1.338151
20
-2.700981
30
10.028430
11
-1.368503
21
-2.701644
31
10.077660
12
-1.378447
22
-2.629263
32
10.077710
13
-1.378447
23
-2.629263
33
10.077710
0
3DFACE
8
0
10
-1.348239
20
-2.621164
30
10.028450
11
-1.338151
21
-2.700981
31
10.028430
12
-1.378447
22
-2.629263
32
10.077710
13
-1.378447
23
-2.629263
33
10.077710
0
3DFACE
8
0
10
-1.498179
20
-2.437844
30
9.971533
11
-1.498180
21
-2.437844
31
10.028470
12
-1.576150
22
-2.408779
32
10.028480
13
-1.576150
23
-2.408779
33
10.028480
0
3DFACE
8
0
10
-1.576149
20
-2.408779
30
9.971519
11
-1.498179
21
-2.437844
31
9.971533
12
-1.576150
22
-2.408779
32
10.028480
13
-1.576150
23
-2.408779
33
10.028480
0
3DFACE
8
0
10
-1.431105
20
-2.485203
30
9.971537
11
-1.431106
21
-2.485203
31
10.028460
12
-1.498180
22
-2.437844
32
10.028470
13
-1.498180
23
-2.437844
33
10.028470
0
3DFACE
8
0
10
-1.498179
20
-2.437844
30
9.971533
11
-1.431105
21
-2.485203
31
9.971537
12
-1.498180
22
-2.437844
32
10.028470
13
-1.498180
23
-2.437844
33
10.028470
0
3DFACE
8
0
10
-1.379860
20
-2.547723
30
9.971541
11
-1.379860
21
-2.547723
31
10.028460
12
-1.431106
22
-2.485203
32
10.028460
13
-1.431106
23
-2.485203
33
10.028460
0
3DFACE
8
0
10
-1.431105
20
-2.485203
30
9.971537
11
-1.379860
21
-2.547723
31
9.971541
12
-1.431106
22
-2.485203
32
10.028460
13
-1.431106
23
-2.485203
33
10.028460
0
3DFACE
8
0
10
-1.348239
20
-2.621165
30
9.971546
11
-1.348239
21
-2.621164
31
10.028450
12
-1.379860
22
-2.547723
32
10.028460
13
-1.379860
23
-2.547723
33
10.028460
0
3DFACE
8
0
10
-1.379860
20
-2.547723
30
9.971541
11
-1.348239
21
-2.621165
31
9.971546
12
-1.379860
22
-2.547723
32
10.028460
13
-1.379860
23
-2.547723
33
10.028460
0
3DFACE
8
0
10
-1.338151
20
-2.700981
30
9.971565
11
-1.338151
21
-2.700981
31
10.028430
12
-1.348239
22
-2.621164
32
10.028450
13
-1.348239
23
-2.621164
33
10.028450
0
3DFACE
8
0
10
-1.348239
20
-2.621165
30
9.971546
11
-1.338151
21
-2.700981
31
9.971565
12
-1.348239
22
-2.621164
32
10.028450
13
-1.348239
23
-2.621164
33
10.028450
0
3DFACE
8
0
10
-1.514076
20
-2.462866
30
9.922257
11
-1.498179
21
-2.437844
31
9.971533
12
-1.576149
22
-2.408779
32
9.971519
13
-1.576149
23
-2.408779
33
9.971519
0
3DFACE
8
0
10
-1.584198
20
-2.436477
30
9.922224
11
-1.514076
21
-2.462866
31
9.922257
12
-1.576149
22
-2.408779
32
9.971519
13
-1.576149
23
-2.408779
33
9.971519
0
3DFACE
8
0
10
-1.453794
20
-2.505852
30
9.922270
11
-1.431105
21
-2.485203
31
9.971537
12
-1.498179
22
-2.437844
32
9.971533
13
-1.498179
23
-2.437844
33
9.971533
0
3DFACE
8
0
10
-1.514076
20
-2.462866
30
9.922257
11
-1.453794
21
-2.505852
31
9.922270
12
-1.498179
22
-2.437844
32
9.971533
13
-1.498179
23
-2.437844
33
9.971533
0
3DFACE
8
0
10
-1.407474
20
-2.562600
30
9.922281
11
-1.379860
21
-2.547723
31
9.971541
12
-1.431105
22
-2.485203
32
9.971537
13
-1.431105
23
-2.485203
33
9.971537
0
3DFACE
8
0
10
-1.453794
20
-2.505852
30
9.922270
11
-1.407474
21
-2.562600
31
9.922281
12
-1.431105
22
-2.485203
32
9.971537
13
-1.431105
23
-2.485203
33
9.971537
0
3DFACE
8
0
10
-1.378447
20
-2.629262
30
9.922294
11
-1.348239
21
-2.621165
31
9.971546
12
-1.379860
22
-2.547723
32
9.971541
13
-1.379860
23
-2.547723
33
9.971541
0
3DFACE
8
0
10
-1.407474
20
-2.562600
30
9.922281
11
-1.378447
21
-2.629262
31
9.922294
12
-1.379860
22
-2.547723
32
9.971541
13
-1.379860
23
-2.547723
33
9.971541
0
3DFACE
8
0
10
-1.368502
20
-2.701644
30
9.922338
11
-1.338151
21
-2.700981
31
9.971565
12
-1.348239
22
-2.621165
32
9.971546
13
-1.348239
23
-2.621165
33
9.971546
0
3DFACE
8
0
10
-1.378447
20
-2.629262
30
9.922294
11
-1.368502
21
-2.701644
31
9.922338
12
-1.348239
22
-2.621165
32
9.971546
13
-1.348239
23
-2.621165
33
9.971546
0
3DFACE
8
0
10
-1.539750
20
-2.506159
30
9.893880
11
-1.514076
21
-2.462866
31
9.922257
12
-1.584198
22
-2.436477
32
9.922224
13
-1.584198
23
-2.436477
33
9.922224
0
3DFACE
8
0
10
-1.597153
20
-2.484390
30
9.893839
11
-1.539750
21
-2.506159
31
9.893880
12
-1.584198
22
-2.436477
32
9.922224
13
-1.584198
23
-2.436477
33
9.922224
0
3DFACE
8
0
10
-1.539750
20
-2.506159
30
9.893880
11
-1.597153
21
-2.484390
31
9.893839
12
-1.567675
22
-2.556068
32
9.893973
13
-1.567675
23
-2.556068
33
9.893973
0
3DFACE
8
0
10
-1.597153
20
-2.484390
30
9.893839
11
-1.611162
21
-2.539609
31
9.893937
12
-1.567675
22
-2.556068
32
9.893973
13
-1.567675
23
-2.556068
33
9.893973
0
3DFACE
8
0
10
-1.539750
20
-2.506159
30
9.893880
11
-1.567675
21
-2.556068
31
9.893973
12
-1.516369
22
-2.600388
32
9.893998
13
-1.516369
23
-2.600388
33
9.893998
0
3DFACE
8
0
10
-1.490542
20
-2.541577
30
9.893896
11
-1.539750
21
-2.506159
31
9.893880
12
-1.516369
22
-2.600388
32
9.893998
13
-1.516369
23
-2.600388
33
9.893998
0
3DFACE
8
0
10
-1.490542
20
-2.541577
30
9.893896
11
-1.453794
21
-2.505852
31
9.922270
12
-1.514076
22
-2.462866
32
9.922257
13
-1.514076
23
-2.462866
33
9.922257
0
3DFACE
8
0
10
-1.539750
20
-2.506159
30
9.893880
11
-1.490542
21
-2.541577
31
9.893896
12
-1.514076
22
-2.462866
32
9.922257
13
-1.514076
23
-2.462866
33
9.922257
0
3DFACE
8
0
10
-1.452523
20
-2.588339
30
9.893912
11
-1.490542
21
-2.541577
31
9.893896
12
-1.516369
22
-2.600388
32
9.893998
13
-1.516369
23
-2.600388
33
9.893998
0
3DFACE
8
0
10
-1.452523
20
-2.588339
30
9.893912
11
-1.407474
21
-2.562600
31
9.922281
12
-1.453794
22
-2.505852
32
9.922270
13
-1.453794
23
-2.505852
33
9.922270
0
3DFACE
8
0
10
-1.490542
20
-2.541577
30
9.893896
11
-1.452523
21
-2.588339
31
9.893912
12
-1.453794
22
-2.505852
32
9.922270
13
-1.453794
23
-2.505852
33
9.922270
0
3DFACE
8
0
10
-1.452523
20
-2.588339
30
9.893912
11
-1.516369
21
-2.600388
31
9.893998
12
-1.483751
22
-2.659428
32
9.894022
13
-1.483751
23
-2.659428
33
9.894022
0
3DFACE
8
0
10
-1.428347
20
-2.643274
30
9.893929
11
-1.452523
21
-2.588339
31
9.893912
12
-1.483751
22
-2.659428
32
9.894022
13
-1.483751
23
-2.659428
33
9.894022
0
3DFACE
8
0
10
-1.428347
20
-2.643274
30
9.893929
11
-1.378447
21
-2.629262
31
9.922294
12
-1.407474
22
-2.562600
32
9.922281
13
-1.407474
23
-2.562600
33
9.922281
0
3DFACE
8
0
10
-1.452523
20
-2.588339
30
9.893912
11
-1.428347
21
-2.643274
31
9.893929
12
-1.407474
22
-2.562600
32
9.922281
13
-1.407474
23
-2.562600
33
9.922281
0
3DFACE
8
0
10
-1.428347
20
-2.643274
30
9.893929
11
-1.483751
21
-2.659428
31
9.894022
12
-1.476928
22
-2.704091
32
9.894020
13
-1.476928
23
-2.704091
33
9.894020
0
3DFACE
8
0
10
-1.419526
20
-2.702785
30
9.893963
11
-1.428347
21
-2.643274
31
9.893929
12
-1.476928
22
-2.704091
32
9.894020
13
-1.476928
23
-2.704091
33
9.894020
0
3DFACE
8
0
10
-1.419526
20
-2.702785
30
9.893963
11
-1.368502
21
-2.701644
31
9.922338
12
-1.378447
22
-2.629262
32
9.922294
13
-1.378447
23
-2.629262
33
9.922294
0
3DFACE
8
0
10
-1.428347
20
-2.643274
30
9.893929
11
-1.419526
21
-2.702785
31
9.893963
12
-1.378447
22
-2.629262
32
9.922294
13
-1.378447
23
-2.629262
33
9.922294
0
3DFACE
8
0
10
-1.557721
20
-2.633661
30
9.922463
11
-1.567675
21
-2.556068
31
9.893973
12
-1.611162
22
-2.539609
32
9.893937
13
-1.611162
23
-2.539609
33
9.893937
0
3DFACE
8
0
10
-1.557721
20
-2.633661
30
9.922463
11
-1.516369
21
-2.600388
31
9.893998
12
-1.567675
22
-2.556068
32
9.893973
13
-1.567675
23
-2.556068
33
9.893973
0
3DFACE
8
0
10
-1.557721
20
-2.633661
30
9.922463
11
-1.483751
21
-2.659428
31
9.894022
12
-1.516369
22
-2.600388
32
9.893998
13
-1.516369
23
-2.600388
33
9.893998
0
3DFACE
8
0
10
-1.622948
20
-2.587332
30
9.922417
11
-1.557721
21
-2.633661
31
9.922463
12
-1.611162
22
-2.539609
32
9.893937
13
-1.611162
23
-2.539609
33
9.893937
0
3DFACE
8
0
10
-1.526042
20
-2.705214
30
9.922451
11
-1.476928
21
-2.704091
31
9.894020
12
-1.483751
22
-2.659428
32
9.894022
13
-1.483751
23
-2.659428
33
9.894022
0
3DFACE
8
0
10
-1.557721
20
-2.633661
30
9.922463
11
-1.526042
21
-2.705214
31
9.922451
12
-1.483751
22
-2.659428
32
9.894022
13
-1.483751
23
-2.659428
33
9.894022
0
3DFACE
8
0
10
-1.578820
20
-2.650724
30
9.971633
11
-1.557721
21
-2.633661
31
9.922463
12
-1.622948
22
-2.587332
32
9.922417
13
-1.622948
23
-2.587332
33
9.922417
0
3DFACE
8
0
10
-1.629739
20
-2.614846
30
9.971614
11
-1.578820
21
-2.650724
31
9.971633
12
-1.622948
22
-2.587332
32
9.922417
13
-1.622948
23
-2.587332
33
9.922417
0
3DFACE
8
0
10
-1.554335
20
-2.705859
30
9.971622
11
-1.526042
21
-2.705214
31
9.922451
12
-1.557721
22
-2.633661
32
9.922463
13
-1.557721
23
-2.633661
33
9.922463
0
3DFACE
8
0
10
-1.611162
20
-2.539609
30
9.893937
11
-1.597153
21
-2.484390
31
9.893839
12
-1.704261
22
-2.538311
32
9.880371
13
-1.704261
23
-2.538311
33
9.880371
0
3DFACE
8
0
10
-1.597153
20
-2.484390
30
9.893839
11
-1.704257
21
-2.474202
31
9.880349
12
-1.704261
22
-2.538311
32
9.880371
13
-1.704261
23
-2.538311
33
9.880371
0
3DFACE
8
0
10
-1.704257
20
-2.474202
30
9.880349
11
-1.801257
21
-2.473426
31
9.877607
12
-1.704261
22
-2.538311
32
9.880371
13
-1.704261
23
-2.538311
33
9.880371
0
3DFACE
8
0
10
-1.801257
20
-2.473426
30
9.877607
11
-1.801257
21
-2.539016
31
9.877607
12
-1.704261
22
-2.538311
32
9.880371
13
-1.704261
23
-2.538311
33
9.880371
0
3DFACE
8
0
10
-1.704202
20
-2.593818
30
9.912432
11
-1.704261
21
-2.538311
31
9.880371
12
-1.801257
22
-2.539016
32
9.877607
13
-1.801257
23
-2.539016
33
9.877607
0
3DFACE
8
0
10
-1.801257
20
-2.595818
30
9.910402
11
-1.704202
21
-2.593818
31
9.912432
12
-1.801257
22
-2.539016
32
9.877607
13
-1.801257
23
-2.539016
33
9.877607
0
3DFACE
8
0
10
-1.801257
20
-2.473426
30
9.877607
11
-1.704257
21
-2.474202
31
9.880349
12
-1.801257
22
-2.416623
32
9.910402
13
-1.801257
23
-2.416623
33
9.910402
0
3DFACE
8
0
10
-1.704257
20
-2.474202
30
9.880349
11
-1.704080
21
-2.418656
31
9.912391
12
-1.801257
22
-2.416623
32
9.910402
13
-1.801257
23
-2.416623
33
9.910402
0
3DFACE
8
0
10
-1.801257
20
-2.416623
30
9.910402
11
-1.704080
21
-2.418656
31
9.912391
12
-1.801257
22
-2.383829
32
9.967205
13
-1.801257
23
-2.383829
33
9.967205
0
3DFACE
8
0
10
-1.704080
20
-2.418656
30
9.912391
11
-1.703869
21
-2.386574
31
9.967928
12
-1.801257
22
-2.383829
32
9.967205
13
-1.801257
23
-2.383829
33
9.967205
0
3DFACE
8
0
10
-1.801257
20
-2.383829
30
9.967205
11
-1.703869
21
-2.386574
31
9.967928
12
-1.801257
22
-2.383829
32
10.032790
13
-1.801257
23
-2.383829
33
10.032790
0
3DFACE
8
0
10
-1.703869
20
-2.386574
30
9.967928
11
-1.703869
21
-2.386574
31
10.032070
12
-1.801257
22
-2.383829
32
10.032790
13
-1.801257
23
-2.383829
33
10.032790
0
3DFACE
8
0
10
-1.801257
20
-2.383829
30
10.032790
11
-1.703869
21
-2.386574
31
10.032070
12
-1.801257
22
-2.416624
32
10.089600
13
-1.801257
23
-2.416624
33
10.089600
0
3DFACE
8
0
10
-1.703869
20
-2.386574
30
10.032070
11
-1.704080
21
-2.418656
31
10.087610
12
-1.801257
22
-2.416624
32
10.089600
13
-1.801257
23
-2.416624
33
10.089600
0
3DFACE
8
0
10
-1.801257
20
-2.416624
30
10.089600
11
-1.704080
21
-2.418656
31
10.087610
12
-1.801257
22
-2.473426
32
10.122390
13
-1.801257
23
-2.473426
33
10.122390
0
3DFACE
8
0
10
-1.704080
20
-2.418656
30
10.087610
11
-1.704257
21
-2.474202
31
10.119650
12
-1.801257
22
-2.473426
32
10.122390
13
-1.801257
23
-2.473426
33
10.122390
0
3DFACE
8
0
10
-1.801257
20
-2.473426
30
10.122390
11
-1.704257
21
-2.474202
31
10.119650
12
-1.801257
22
-2.539016
32
10.122390
13
-1.801257
23
-2.539016
33
10.122390
0
3DFACE
8
0
10
-1.704257
20
-2.474202
30
10.119650
11
-1.704261
21
-2.538311
31
10.119630
12
-1.801257
22
-2.539016
32
10.122390
13
-1.801257
23
-2.539016
33
10.122390
0
3DFACE
8
0
10
-1.801257
20
-2.539016
30
10.122390
11
-1.704261
21
-2.538311
31
10.119630
12
-1.801257
22
-2.595818
32
10.089600
13
-1.801257
23
-2.595818
33
10.089600
0
3DFACE
8
0
10
-1.704261
20
-2.538311
30
10.119630
11
-1.704202
21
-2.593818
31
10.087570
12
-1.801257
22
-2.595818
32
10.089600
13
-1.801257
23
-2.595818
33
10.089600
0
3DFACE
8
0
10
-1.801257
20
-2.595818
30
10.089600
11
-1.704202
21
-2.593818
31
10.087570
12
-1.801257
22
-2.628613
32
10.032790
13
-1.801257
23
-2.628613
33
10.032790
0
3DFACE
8
0
10
-1.704202
20
-2.593818
30
10.087570
11
-1.704185
21
-2.625867
31
10.032050
12
-1.801257
22
-2.628613
32
10.032790
13
-1.801257
23
-2.628613
33
10.032790
0
3DFACE
8
0
10
-1.801257
20
-2.628613
30
10.032790
11
-1.704185
21
-2.625867
31
10.032050
12
-1.801257
22
-2.628613
32
9.967205
13
-1.801257
23
-2.628613
33
9.967205
0
3DFACE
8
0
10
-1.704185
20
-2.625867
30
10.032050
11
-1.704185
21
-2.625867
31
9.967947
12
-1.801257
22
-2.628613
32
9.967205
13
-1.801257
23
-2.628613
33
9.967205
0
3DFACE
8
0
10
-1.801257
20
-2.628613
30
9.967205
11
-1.704185
21
-2.625867
31
9.967947
12
-1.801257
22
-2.595818
32
9.910402
13
-1.801257
23
-2.595818
33
9.910402
0
3DFACE
8
0
10
-1.704185
20
-2.625867
30
9.967947
11
-1.704202
21
-2.593818
31
9.912432
12
-1.801257
22
-2.595818
32
9.910402
13
-1.801257
23
-2.595818
33
9.910402
0
3DFACE
8
0
10
-1.629739
20
-2.614846
30
9.971614
11
-1.704185
21
-2.625867
31
9.967947
12
-1.704185
22
-2.625867
32
10.032050
13
-1.704185
23
-2.625867
33
10.032050
0
3DFACE
8
0
10
-1.629739
20
-2.614846
30
10.028390
11
-1.629739
21
-2.614846
31
9.971614
12
-1.704185
22
-2.625867
32
10.032050
13
-1.704185
23
-2.625867
33
10.032050
0
3DFACE
8
0
10
-1.629739
20
-2.614846
30
10.028390
11
-1.704185
21
-2.625867
31
10.032050
12
-1.704202
22
-2.593818
32
10.087570
13
-1.704202
23
-2.593818
33
10.087570
0
3DFACE
8
0
10
-1.622948
20
-2.587332
30
10.077580
11
-1.629739
21
-2.614846
31
10.028390
12
-1.704202
22
-2.593818
32
10.087570
13
-1.704202
23
-2.593818
33
10.087570
0
3DFACE
8
0
10
-1.622948
20
-2.587332
30
10.077580
11
-1.704202
21
-2.593818
31
10.087570
12
-1.704261
22
-2.538311
32
10.119630
13
-1.704261
23
-2.538311
33
10.119630
0
3DFACE
8
0
10
-1.611162
20
-2.539609
30
10.106060
11
-1.622948
21
-2.587332
31
10.077580
12
-1.704261
22
-2.538311
32
10.119630
13
-1.704261
23
-2.538311
33
10.119630
0
3DFACE
8
0
10
-1.611162
20
-2.539609
30
10.106060
11
-1.704261
21
-2.538311
31
10.119630
12
-1.704257
22
-2.474202
32
10.119650
13
-1.704257
23
-2.474202
33
10.119650
0
3DFACE
8
0
10
-1.597154
20
-2.484390
30
10.106160
11
-1.611162
21
-2.539609
31
10.106060
12
-1.704257
22
-2.474202
32
10.119650
13
-1.704257
23
-2.474202
33
10.119650
0
3DFACE
8
0
10
-1.597154
20
-2.484390
30
10.106160
11
-1.704257
21
-2.474202
31
10.119650
12
-1.704080
22
-2.418656
32
10.087610
13
-1.704080
23
-2.418656
33
10.087610
0
3DFACE
8
0
10
-1.584198
20
-2.436477
30
10.077780
11
-1.597154
21
-2.484390
31
10.106160
12
-1.704080
22
-2.418656
32
10.087610
13
-1.704080
23
-2.418656
33
10.087610
0
3DFACE
8
0
10
-1.584198
20
-2.436477
30
10.077780
11
-1.704080
21
-2.418656
31
10.087610
12
-1.703869
22
-2.386574
32
10.032070
13
-1.703869
23
-2.386574
33
10.032070
0
3DFACE
8
0
10
-1.576150
20
-2.408779
30
10.028480
11
-1.584198
21
-2.436477
31
10.077780
12
-1.703869
22
-2.386574
32
10.032070
13
-1.703869
23
-2.386574
33
10.032070
0
3DFACE
8
0
10
-1.576150
20
-2.408779
30
10.028480
11
-1.703869
21
-2.386574
31
10.032070
12
-1.703869
22
-2.386574
32
9.967928
13
-1.703869
23
-2.386574
33
9.967928
0
3DFACE
8
0
10
-1.576149
20
-2.408779
30
9.971519
11
-1.576150
21
-2.408779
31
10.028480
12
-1.703869
22
-2.386574
32
9.967928
13
-1.703869
23
-2.386574
33
9.967928
0
3DFACE
8
0
10
-1.576149
20
-2.408779
30
9.971519
11
-1.703869
21
-2.386574
31
9.967928
12
-1.704080
22
-2.418656
32
9.912391
13
-1.704080
23
-2.418656
33
9.912391
0
3DFACE
8
0
10
-1.584198
20
-2.436477
30
9.922224
11
-1.576149
21
-2.408779
31
9.971519
12
-1.704080
22
-2.418656
32
9.912391
13
-1.704080
23
-2.418656
33
9.912391
0
3DFACE
8
0
10
-1.584198
20
-2.436477
30
9.922224
11
-1.704080
21
-2.418656
31
9.912391
12
-1.704257
22
-2.474202
32
9.880349
13
-1.704257
23
-2.474202
33
9.880349
0
3DFACE
8
0
10
-1.597153
20
-2.484390
30
9.893839
11
-1.584198
21
-2.436477
31
9.922224
12
-1.704257
22
-2.474202
32
9.880349
13
-1.704257
23
-2.474202
33
9.880349
0
3DFACE
8
0
10
-1.588281
20
-2.708609
30
10.037440
11
-1.604364
21
-2.672952
31
10.037810
12
-1.588281
22
-2.708609
32
9.962558
13
-1.588281
23
-2.708609
33
9.962558
0
3DFACE
8
0
10
-1.604364
20
-2.672952
30
10.037810
11
-1.604364
21
-2.672952
31
9.962190
12
-1.588281
22
-2.708609
32
9.962558
13
-1.588281
23
-2.708609
33
9.962558
0
3DFACE
8
0
10
-1.604364
20
-2.672952
30
10.037810
11
-1.668581
21
-2.656779
31
10.040110
12
-1.604364
22
-2.672952
32
9.962190
13
-1.604364
23
-2.672952
33
9.962190
0
3DFACE
8
0
10
-1.668581
20
-2.656779
30
10.040110
11
-1.668581
21
-2.656779
31
9.959888
12
-1.604364
22
-2.672952
32
9.962190
13
-1.604364
23
-2.672952
33
9.962190
0
3DFACE
8
0
10
-1.800393
20
-2.657236
30
9.959536
11
-1.668581
21
-2.656779
31
9.959888
12
-1.668581
22
-2.656779
32
10.040110
13
-1.668581
23
-2.656779
33
10.040110
0
3DFACE
8
0
10
-1.800393
20
-2.657236
30
10.040460
11
-1.800393
21
-2.657236
31
9.959536
12
-1.668581
22
-2.656779
32
10.040110
13
-1.668581
23
-2.656779
33
10.040110
0
3DFACE
8
0
10
-1.800393
20
-2.657236
30
10.040460
11
-1.668581
21
-2.656779
31
10.040110
12
-1.664113
22
-2.617221
32
10.109570
13
-1.664113
23
-2.617221
33
10.109570
0
3DFACE
8
0
10
-1.664113
20
-2.617221
30
10.109570
11
-1.668581
21
-2.656779
31
10.040110
12
-1.604364
22
-2.672952
32
10.037810
13
-1.604364
23
-2.672952
33
10.037810
0
3DFACE
8
0
10
-1.800393
20
-2.616772
30
10.110550
11
-1.800393
21
-2.657236
31
10.040460
12
-1.664113
22
-2.617221
32
10.109570
13
-1.664113
23
-2.617221
33
10.109570
0
3DFACE
8
0
10
-1.800393
20
-2.616772
30
10.110550
11
-1.664113
21
-2.617221
31
10.109570
12
-1.656186
22
-2.548769
32
10.149610
13
-1.656186
23
-2.548769
33
10.149610
0
3DFACE
8
0
10
-1.800393
20
-2.546685
30
10.151020
11
-1.800393
21
-2.616772
31
10.110550
12
-1.656186
22
-2.548769
32
10.149610
13
-1.656186
23
-2.548769
33
10.149610
0
3DFACE
8
0
10
-1.800393
20
-2.546685
30
10.151020
11
-1.656186
21
-2.548769
31
10.149610
12
-1.701075
22
-2.465134
32
10.153160
13
-1.701075
23
-2.465134
33
10.153160
0
3DFACE
8
0
10
-1.800393
20
-2.465756
30
10.151020
11
-1.800393
21
-2.546685
31
10.151020
12
-1.701075
22
-2.465134
32
10.153160
13
-1.701075
23
-2.465134
33
10.153160
0
3DFACE
8
0
10
-1.800393
20
-2.465756
30
10.151020
11
-1.701075
21
-2.465134
31
10.153160
12
-1.700560
22
-2.394069
32
10.112100
13
-1.700560
23
-2.394069
33
10.112100
0
3DFACE
8
0
10
-1.800393
20
-2.395670
30
10.110550
11
-1.800393
21
-2.465756
31
10.151020
12
-1.700560
22
-2.394069
32
10.112100
13
-1.700560
23
-2.394069
33
10.112100
0
3DFACE
8
0
10
-1.800393
20
-2.395670
30
10.110550
11
-1.700560
21
-2.394069
31
10.112100
12
-1.700011
22
-2.353056
32
10.041030
13
-1.700011
23
-2.353056
33
10.041030
0
3DFACE
8
0
10
-1.800393
20
-2.355206
30
10.040470
11
-1.800393
21
-2.395670
31
10.110550
12
-1.700011
22
-2.353056
32
10.041030
13
-1.700011
23
-2.353056
33
10.041030
0
3DFACE
8
0
10
-1.800393
20
-2.355206
30
10.040470
11
-1.700011
21
-2.353056
31
10.041030
12
-1.700011
22
-2.353056
32
9.958974
13
-1.700011
23
-2.353056
33
9.958974
0
3DFACE
8
0
10
-1.800393
20
-2.355206
30
9.959535
11
-1.800393
21
-2.355206
31
10.040470
12
-1.700011
22
-2.353056
32
9.958974
13
-1.700011
23
-2.353056
33
9.958974
0
3DFACE
8
0
10
-1.800393
20
-2.355206
30
9.959535
11
-1.700011
21
-2.353056
31
9.958974
12
-1.700560
22
-2.394069
32
9.887901
13
-1.700560
23
-2.394069
33
9.887901
0
3DFACE
8
0
10
-1.800393
20
-2.395670
30
9.889449
11
-1.800393
21
-2.355206
31
9.959535
12
-1.700560
22
-2.394069
32
9.887901
13
-1.700560
23
-2.394069
33
9.887901
0
3DFACE
8
0
10
-1.800393
20
-2.395670
30
9.889449
11
-1.700560
21
-2.394069
31
9.887901
12
-1.701076
22
-2.465133
32
9.846841
13
-1.701076
23
-2.465133
33
9.846841
0
3DFACE
8
0
10
-1.800393
20
-2.465756
30
9.848985
11
-1.800393
21
-2.395670
31
9.889449
12
-1.701076
22
-2.465133
32
9.846841
13
-1.701076
23
-2.465133
33
9.846841
0
3DFACE
8
0
10
-1.800393
20
-2.465756
30
9.848985
11
-1.701076
21
-2.465133
31
9.846841
12
-1.656187
22
-2.548769
32
9.850393
13
-1.656187
23
-2.548769
33
9.850393
0
3DFACE
8
0
10
-1.800393
20
-2.546685
30
9.848985
11
-1.800393
21
-2.465756
31
9.848985
12
-1.656187
22
-2.548769
32
9.850393
13
-1.656187
23
-2.548769
33
9.850393
0
3DFACE
8
0
10
-1.800393
20
-2.546685
30
9.848985
11
-1.656187
21
-2.548769
31
9.850393
12
-1.664113
22
-2.617221
32
9.890431
13
-1.664113
23
-2.617221
33
9.890431
0
3DFACE
8
0
10
-1.800393
20
-2.616772
30
9.889449
11
-1.800393
21
-2.546685
31
9.848985
12
-1.664113
22
-2.617221
32
9.890431
13
-1.664113
23
-2.617221
33
9.890431
0
3DFACE
8
0
10
-1.800393
20
-2.616772
30
9.889449
11
-1.664113
21
-2.617221
31
9.890431
12
-1.668581
22
-2.656779
32
9.959888
13
-1.668581
23
-2.656779
33
9.959888
0
3DFACE
8
0
10
-1.800393
20
-2.657236
30
9.959536
11
-1.800393
21
-2.616772
31
9.889449
12
-1.668581
22
-2.656779
32
9.959888
13
-1.668581
23
-2.656779
33
9.959888
0
3DFACE
8
0
10
-1.664113
20
-2.617221
30
9.890431
11
-1.656187
21
-2.548769
31
9.850393
12
-1.527721
22
-2.610946
32
9.859042
13
-1.527721
23
-2.610946
33
9.859042
0
3DFACE
8
0
10
-1.508575
20
-2.517525
30
9.857930
11
-1.527721
21
-2.610946
31
9.859042
12
-1.656187
22
-2.548769
32
9.850393
13
-1.656187
23
-2.548769
33
9.850393
0
3DFACE
8
0
10
-1.591829
20
-2.474522
30
9.854110
11
-1.508575
21
-2.517525
31
9.857930
12
-1.656187
22
-2.548769
32
9.850393
13
-1.656187
23
-2.548769
33
9.850393
0
3DFACE
8
0
10
-1.591829
20
-2.474522
30
9.854110
11
-1.656187
21
-2.548769
31
9.850393
12
-1.701076
22
-2.465133
32
9.846841
13
-1.701076
23
-2.465133
33
9.846841
0
3DFACE
8
0
10
-1.432840
20
-2.614042
30
9.860470
11
-1.527721
21
-2.610946
31
9.859042
12
-1.508575
22
-2.517525
32
9.857930
13
-1.508575
23
-2.517525
33
9.857930
0
3DFACE
8
0
10
-1.432840
20
-2.614042
30
9.860470
11
-1.411642
21
-2.704195
31
9.860436
12
-1.527721
22
-2.610946
32
9.859042
13
-1.527721
23
-2.610946
33
9.859042
0
3DFACE
8
0
10
-1.411642
20
-2.704195
30
9.860436
11
-1.486691
21
-2.706045
31
9.860351
12
-1.527721
22
-2.610946
32
9.859042
13
-1.527721
23
-2.610946
33
9.859042
0
3DFACE
8
0
10
-1.576276
20
-2.650192
30
9.896730
11
-1.664113
21
-2.617221
31
9.890431
12
-1.527721
22
-2.610946
32
9.859042
13
-1.527721
23
-2.610946
33
9.859042
0
3DFACE
8
0
10
-1.576276
20
-2.650192
30
9.896730
11
-1.527721
21
-2.610946
31
9.859042
12
-1.486691
22
-2.706045
32
9.860351
13
-1.486691
23
-2.706045
33
9.860351
0
3DFACE
8
0
10
-1.551039
20
-2.707668
30
9.897726
11
-1.576276
21
-2.650192
31
9.896730
12
-1.486691
22
-2.706045
32
9.860351
13
-1.486691
23
-2.706045
33
9.860351
0
3DFACE
8
0
10
-1.668581
20
-2.656779
30
9.959888
11
-1.664113
21
-2.617221
31
9.890431
12
-1.576276
22
-2.650192
32
9.896730
13
-1.576276
23
-2.650192
33
9.896730
0
3DFACE
8
0
10
-1.604364
20
-2.672952
30
9.962190
11
-1.668581
21
-2.656779
31
9.959888
12
-1.576276
22
-2.650192
32
9.896730
13
-1.576276
23
-2.650192
33
9.896730
0
3DFACE
8
0
10
-1.604364
20
-2.672952
30
9.962190
11
-1.576276
21
-2.650192
31
9.896730
12
-1.551039
22
-2.707668
32
9.897726
13
-1.551039
23
-2.707668
33
9.897726
0
3DFACE
8
0
10
-1.588281
20
-2.708609
30
9.962558
11
-1.604364
21
-2.672952
31
9.962190
12
-1.551039
22
-2.707668
32
9.897726
13
-1.551039
23
-2.707668
33
9.897726
0
3DFACE
8
0
10
-1.508575
20
-2.517525
30
9.857930
11
-1.591829
21
-2.474522
31
9.854110
12
-1.465905
22
-2.465222
32
9.896111
13
-1.465905
23
-2.465222
33
9.896111
0
3DFACE
8
0
10
-1.591829
20
-2.474522
30
9.854110
11
-1.573196
21
-2.409014
31
9.893283
12
-1.465905
22
-2.465222
32
9.896111
13
-1.465905
23
-2.465222
33
9.896111
0
3DFACE
8
0
10
-1.465905
20
-2.465222
30
9.896111
11
-1.573196
21
-2.409014
31
9.893283
12
-1.438489
22
-2.435081
32
9.962000
13
-1.438489
23
-2.435081
33
9.962000
0
3DFACE
8
0
10
-1.573196
20
-2.409014
30
9.893283
11
-1.561045
21
-2.371238
31
9.960955
12
-1.438489
22
-2.435081
32
9.962000
13
-1.438489
23
-2.435081
33
9.962000
0
3DFACE
8
0
10
-1.438489
20
-2.435081
30
9.962000
11
-1.561045
21
-2.371238
31
9.960955
12
-1.438489
22
-2.435080
32
10.038000
13
-1.438489
23
-2.435080
33
10.038000
0
3DFACE
8
0
10
-1.561045
20
-2.371238
30
9.960955
11
-1.561046
21
-2.371238
31
10.039050
12
-1.438489
22
-2.435080
32
10.038000
13
-1.438489
23
-2.435080
33
10.038000
0
3DFACE
8
0
10
-1.438489
20
-2.435080
30
10.038000
11
-1.561046
21
-2.371238
31
10.039050
12
-1.465905
22
-2.465222
32
10.103890
13
-1.465905
23
-2.465222
33
10.103890
0
3DFACE
8
0
10
-1.561046
20
-2.371238
30
10.039050
11
-1.573196
21
-2.409014
31
10.106720
12
-1.465905
22
-2.465222
32
10.103890
13
-1.465905
23
-2.465222
33
10.103890
0
3DFACE
8
0
10
-1.465905
20
-2.465222
30
10.103890
11
-1.573196
21
-2.409014
31
10.106720
12
-1.508575
22
-2.517526
32
10.142070
13
-1.508575
23
-2.517526
33
10.142070
0
3DFACE
8
0
10
-1.573196
20
-2.409014
30
10.106720
11
-1.591829
21
-2.474522
31
10.145890
12
-1.508575
22
-2.517526
32
10.142070
13
-1.508575
23
-2.517526
33
10.142070
0
3DFACE
8
0
10
-1.508575
20
-2.517526
30
10.142070
11
-1.591829
21
-2.474522
31
10.145890
12
-1.527721
22
-2.610946
32
10.140960
13
-1.527721
23
-2.610946
33
10.140960
0
3DFACE
8
0
10
-1.591829
20
-2.474522
30
10.145890
11
-1.656186
21
-2.548769
31
10.149610
12
-1.527721
22
-2.610946
32
10.140960
13
-1.527721
23
-2.610946
33
10.140960
0
3DFACE
8
0
10
-1.527721
20
-2.610946
30
10.140960
11
-1.656186
21
-2.548769
31
10.149610
12
-1.576276
22
-2.650192
32
10.103270
13
-1.576276
23
-2.650192
33
10.103270
0
3DFACE
8
0
10
-1.656186
20
-2.548769
30
10.149610
11
-1.664113
21
-2.617221
31
10.109570
12
-1.576276
22
-2.650192
32
10.103270
13
-1.576276
23
-2.650192
33
10.103270
0
3DFACE
8
0
10
-1.576276
20
-2.650192
30
10.103270
11
-1.664113
21
-2.617221
31
10.109570
12
-1.604364
22
-2.672952
32
10.037810
13
-1.604364
23
-2.672952
33
10.037810
0
3DFACE
8
0
10
-1.576276
20
-2.650192
30
10.103270
11
-1.604364
21
-2.672952
31
10.037810
12
-1.588281
22
-2.708609
32
10.037440
13
-1.588281
23
-2.708609
33
10.037440
0
3DFACE
8
0
10
-1.551039
20
-2.707668
30
10.102270
11
-1.576276
21
-2.650192
31
10.103270
12
-1.588281
22
-2.708609
32
10.037440
13
-1.588281
23
-2.708609
33
10.037440
0
3DFACE
8
0
10
-1.527721
20
-2.610946
30
10.140960
11
-1.576276
21
-2.650192
31
10.103270
12
-1.551039
22
-2.707668
32
10.102270
13
-1.551039
23
-2.707668
33
10.102270
0
3DFACE
8
0
10
-1.486691
20
-2.706045
30
10.139650
11
-1.527721
21
-2.610946
31
10.140960
12
-1.551039
22
-2.707668
32
10.102270
13
-1.551039
23
-2.707668
33
10.102270
0
3DFACE
8
0
10
-1.432841
20
-2.614042
30
10.139530
11
-1.508575
21
-2.517526
31
10.142070
12
-1.527721
22
-2.610946
32
10.140960
13
-1.527721
23
-2.610946
33
10.140960
0
3DFACE
8
0
10
-1.432841
20
-2.614042
30
10.139530
11
-1.527721
21
-2.610946
31
10.140960
12
-1.486691
22
-2.706045
32
10.139650
13
-1.486691
23
-2.706045
33
10.139650
0
3DFACE
8
0
10
-1.465905
20
-2.465222
30
10.103890
11
-1.508575
21
-2.517526
31
10.142070
12
-1.432841
22
-2.614042
32
10.139530
13
-1.432841
23
-2.614042
33
10.139530
0
3DFACE
8
0
10
-1.411642
20
-2.704195
30
10.139560
11
-1.432841
21
-2.614042
31
10.139530
12
-1.486691
22
-2.706045
32
10.139650
13
-1.486691
23
-2.706045
33
10.139650
0
3DFACE
8
0
10
-1.370050
20
-2.588357
30
10.102030
11
-1.465905
21
-2.465222
31
10.103890
12
-1.432841
22
-2.614042
32
10.139530
13
-1.432841
23
-2.614042
33
10.139530
0
3DFACE
8
0
10
-1.370050
20
-2.588357
30
10.102030
11
-1.432841
21
-2.614042
31
10.139530
12
-1.411642
22
-2.704195
32
10.139560
13
-1.411642
23
-2.704195
33
10.139560
0
3DFACE
8
0
10
-1.344420
20
-2.702620
30
10.102110
11
-1.370050
21
-2.588357
31
10.102030
12
-1.411642
22
-2.704195
32
10.139560
13
-1.411642
23
-2.704195
33
10.139560
0
3DFACE
8
0
10
-1.438489
20
-2.435080
30
10.038000
11
-1.465905
21
-2.465222
31
10.103890
12
-1.370050
22
-2.588357
32
10.102030
13
-1.370050
23
-2.588357
33
10.102030
0
3DFACE
8
0
10
-1.330726
20
-2.573570
30
10.037320
11
-1.438489
21
-2.435080
31
10.038000
12
-1.370050
22
-2.588357
32
10.102030
13
-1.370050
23
-2.588357
33
10.102030
0
3DFACE
8
0
10
-1.330726
20
-2.573570
30
10.037320
11
-1.370050
21
-2.588357
31
10.102030
12
-1.344420
22
-2.702620
32
10.102110
13
-1.344420
23
-2.702620
33
10.102110
0
3DFACE
8
0
10
-1.303870
20
-2.701724
30
10.037360
11
-1.330726
21
-2.573570
31
10.037320
12
-1.344420
22
-2.702620
32
10.102110
13
-1.344420
23
-2.702620
33
10.102110
0
3DFACE
8
0
10
-1.438489
20
-2.435081
30
9.962000
11
-1.438489
21
-2.435080
31
10.038000
12
-1.330726
22
-2.573570
32
10.037320
13
-1.330726
23
-2.573570
33
10.037320
0
3DFACE
8
0
10
-1.330726
20
-2.573570
30
9.962679
11
-1.438489
21
-2.435081
31
9.962000
12
-1.330726
22
-2.573570
32
10.037320
13
-1.330726
23
-2.573570
33
10.037320
0
3DFACE
8
0
10
-1.330726
20
-2.573570
30
9.962679
11
-1.330726
21
-2.573570
31
10.037320
12
-1.303870
22
-2.701724
32
10.037360
13
-1.303870
23
-2.701724
33
10.037360
0
3DFACE
8
0
10
-1.303870
20
-2.701724
30
9.962641
11
-1.330726
21
-2.573570
31
9.962679
12
-1.303870
22
-2.701724
32
10.037360
13
-1.303870
23
-2.701724
33
10.037360
0
3DFACE
8
0
10
-1.465905
20
-2.465222
30
9.896111
11
-1.438489
21
-2.435081
31
9.962000
12
-1.330726
22
-2.573570
32
9.962679
13
-1.330726
23
-2.573570
33
9.962679
0
3DFACE
8
0
10
-1.370050
20
-2.588356
30
9.897970
11
-1.465905
21
-2.465222
31
9.896111
12
-1.330726
22
-2.573570
32
9.962679
13
-1.330726
23
-2.573570
33
9.962679
0
3DFACE
8
0
10
-1.370050
20
-2.588356
30
9.897970
11
-1.330726
21
-2.573570
31
9.962679
12
-1.303870
22
-2.701724
32
9.962641
13
-1.303870
23
-2.701724
33
9.962641
0
3DFACE
8
0
10
-1.344420
20
-2.702619
30
9.897895
11
-1.370050
21
-2.588356
31
9.897970
12
-1.303870
22
-2.701724
32
9.962641
13
-1.303870
23
-2.701724
33
9.962641
0
3DFACE
8
0
10
-1.508575
20
-2.517525
30
9.857930
11
-1.465905
21
-2.465222
31
9.896111
12
-1.370050
22
-2.588356
32
9.897970
13
-1.370050
23
-2.588356
33
9.897970
0
3DFACE
8
0
10
-1.432840
20
-2.614042
30
9.860470
11
-1.508575
21
-2.517525
31
9.857930
12
-1.370050
22
-2.588356
32
9.897970
13
-1.370050
23
-2.588356
33
9.897970
0
3DFACE
8
0
10
-1.432840
20
-2.614042
30
9.860470
11
-1.370050
21
-2.588356
31
9.897970
12
-1.344420
22
-2.702619
32
9.897895
13
-1.344420
23
-2.702619
33
9.897895
0
3DFACE
8
0
10
-1.411642
20
-2.704195
30
9.860436
11
-1.432840
21
-2.614042
31
9.860470
12
-1.344420
22
-2.702619
32
9.897895
13
-1.344420
23
-2.702619
33
9.897895
0
3DFACE
8
0
10
-1.578820
20
-2.650724
30
9.971633
11
-1.554335
21
-2.705859
31
9.971622
12
-1.557721
22
-2.633661
32
9.922463
13
-1.557721
23
-2.633661
33
9.922463
0
3DFACE
8
0
10
-1.800393
20
-2.465756
30
9.848985
11
-1.800393
21
-2.546685
31
9.848985
12
-1.801257
22
-2.539016
32
9.877607
13
-1.801257
23
-2.539016
33
9.877607
0
3DFACE
8
0
10
-1.801257
20
-2.473426
30
9.877607
11
-1.800393
21
-2.465756
31
9.848985
12
-1.801257
22
-2.539016
32
9.877607
13
-1.801257
23
-2.539016
33
9.877607
0
3DFACE
8
0
10
-1.801257
20
-2.595818
30
9.910402
11
-1.801257
21
-2.539016
31
9.877607
12
-1.800393
22
-2.546685
32
9.848985
13
-1.800393
23
-2.546685
33
9.848985
0
3DFACE
8
0
10
-1.800393
20
-2.616772
30
9.889449
11
-1.801257
21
-2.595818
31
9.910402
12
-1.800393
22
-2.546685
32
9.848985
13
-1.800393
23
-2.546685
33
9.848985
0
3DFACE
8
0
10
-1.801257
20
-2.628613
30
9.967205
11
-1.801257
21
-2.595818
31
9.910402
12
-1.800393
22
-2.616772
32
9.889449
13
-1.800393
23
-2.616772
33
9.889449
0
3DFACE
8
0
10
-1.800393
20
-2.657236
30
9.959536
11
-1.801257
21
-2.628613
31
9.967205
12
-1.800393
22
-2.616772
32
9.889449
13
-1.800393
23
-2.616772
33
9.889449
0
3DFACE
8
0
10
-1.801257
20
-2.628613
30
10.032790
11
-1.801257
21
-2.628613
31
9.967205
12
-1.800393
22
-2.657236
32
9.959536
13
-1.800393
23
-2.657236
33
9.959536
0
3DFACE
8
0
10
-1.800393
20
-2.657236
30
10.040460
11
-1.801257
21
-2.628613
31
10.032790
12
-1.800393
22
-2.657236
32
9.959536
13
-1.800393
23
-2.657236
33
9.959536
0
3DFACE
8
0
10
-1.801257
20
-2.595818
30
10.089600
11
-1.801257
21
-2.628613
31
10.032790
12
-1.800393
22
-2.657236
32
10.040460
13
-1.800393
23
-2.657236
33
10.040460
0
3DFACE
8
0
10
-1.800393
20
-2.616772
30
10.110550
11
-1.801257
21
-2.595818
31
10.089600
12
-1.800393
22
-2.657236
32
10.040460
13
-1.800393
23
-2.657236
33
10.040460
0
3DFACE
8
0
10
-1.801257
20
-2.539016
30
10.122390
11
-1.801257
21
-2.595818
31
10.089600
12
-1.800393
22
-2.616772
32
10.110550
13
-1.800393
23
-2.616772
33
10.110550
0
3DFACE
8
0
10
-1.800393
20
-2.546685
30
10.151020
11
-1.801257
21
-2.539016
31
10.122390
12
-1.800393
22
-2.616772
32
10.110550
13
-1.800393
23
-2.616772
33
10.110550
0
3DFACE
8
0
10
-1.801257
20
-2.473426
30
10.122390
11
-1.801257
21
-2.539016
31
10.122390
12
-1.800393
22
-2.546685
32
10.151020
13
-1.800393
23
-2.546685
33
10.151020
0
3DFACE
8
0
10
-1.800393
20
-2.465756
30
10.151020
11
-1.801257
21
-2.473426
31
10.122390
12
-1.800393
22
-2.546685
32
10.151020
13
-1.800393
23
-2.546685
33
10.151020
0
3DFACE
8
0
10
-1.801257
20
-2.416624
30
10.089600
11
-1.801257
21
-2.473426
31
10.122390
12
-1.800393
22
-2.465756
32
10.151020
13
-1.800393
23
-2.465756
33
10.151020
0
3DFACE
8
0
10
-1.800393
20
-2.395670
30
10.110550
11
-1.801257
21
-2.416624
31
10.089600
12
-1.800393
22
-2.465756
32
10.151020
13
-1.800393
23
-2.465756
33
10.151020
0
3DFACE
8
0
10
-1.801257
20
-2.383829
30
10.032790
11
-1.801257
21
-2.416624
31
10.089600
12
-1.800393
22
-2.395670
32
10.110550
13
-1.800393
23
-2.395670
33
10.110550
0
3DFACE
8
0
10
-1.800393
20
-2.355206
30
10.040470
11
-1.801257
21
-2.383829
31
10.032790
12
-1.800393
22
-2.395670
32
10.110550
13
-1.800393
23
-2.395670
33
10.110550
0
3DFACE
8
0
10
-1.801257
20
-2.383829
30
9.967205
11
-1.801257
21
-2.383829
31
10.032790
12
-1.800393
22
-2.355206
32
10.040470
13
-1.800393
23
-2.355206
33
10.040470
0
3DFACE
8
0
10
-1.800393
20
-2.355206
30
9.959535
11
-1.801257
21
-2.383829
31
9.967205
12
-1.800393
22
-2.355206
32
10.040470
13
-1.800393
23
-2.355206
33
10.040470
0
3DFACE
8
0
10
-1.801257
20
-2.416623
30
9.910402
11
-1.801257
21
-2.383829
31
9.967205
12
-1.800393
22
-2.355206
32
9.959535
13
-1.800393
23
-2.355206
33
9.959535
0
3DFACE
8
0
10
-1.800393
20
-2.395670
30
9.889449
11
-1.801257
21
-2.416623
31
9.910402
12
-1.800393
22
-2.355206
32
9.959535
13
-1.800393
23
-2.355206
33
9.959535
0
3DFACE
8
0
10
-1.801257
20
-2.473426
30
9.877607
11
-1.801257
21
-2.416623
31
9.910402
12
-1.800393
22
-2.395670
32
9.889449
13
-1.800393
23
-2.395670
33
9.889449
0
3DFACE
8
0
10
-1.800393
20
-2.465756
30
9.848985
11
-1.801257
21
-2.473426
31
9.877607
12
-1.800393
22
-2.395670
32
9.889449
13
-1.800393
23
-2.395670
33
9.889449
0
3DFACE
8
0
10
-1.611162
20
-2.539609
30
9.893937
11
-1.704261
21
-2.538311
31
9.880371
12
-1.704202
22
-2.593818
32
9.912432
13
-1.704202
23
-2.593818
33
9.912432
0
3DFACE
8
0
10
-1.622948
20
-2.587332
30
9.922417
11
-1.611162
21
-2.539609
31
9.893937
12
-1.704202
22
-2.593818
32
9.912432
13
-1.704202
23
-2.593818
33
9.912432
0
3DFACE
8
0
10
-1.622948
20
-2.587332
30
9.922417
11
-1.704202
21
-2.593818
31
9.912432
12
-1.704185
22
-2.625867
32
9.967947
13
-1.704185
23
-2.625867
33
9.967947
0
3DFACE
8
0
10
-1.629739
20
-2.614846
30
9.971614
11
-1.622948
21
-2.587332
31
9.922417
12
-1.704185
22
-2.625867
32
9.967947
13
-1.704185
23
-2.625867
33
9.967947
0
3DFACE
8
0
10
-1.591829
20
-2.474522
30
10.145890
11
-1.701075
21
-2.465134
31
10.153160
12
-1.656186
22
-2.548769
32
10.149610
13
-1.656186
23
-2.548769
33
10.149610
0
3DFACE
8
0
10
-1.700560
20
-2.394069
30
10.112100
11
-1.701075
21
-2.465134
31
10.153160
12
-1.591829
22
-2.474522
32
10.145890
13
-1.591829
23
-2.474522
33
10.145890
0
3DFACE
8
0
10
-1.573196
20
-2.409014
30
10.106720
11
-1.700560
21
-2.394069
31
10.112100
12
-1.591829
22
-2.474522
32
10.145890
13
-1.591829
23
-2.474522
33
10.145890
0
3DFACE
8
0
10
-1.700011
20
-2.353056
30
10.041030
11
-1.700560
21
-2.394069
31
10.112100
12
-1.573196
22
-2.409014
32
10.106720
13
-1.573196
23
-2.409014
33
10.106720
0
3DFACE
8
0
10
-1.561046
20
-2.371238
30
10.039050
11
-1.700011
21
-2.353056
31
10.041030
12
-1.573196
22
-2.409014
32
10.106720
13
-1.573196
23
-2.409014
33
10.106720
0
3DFACE
8
0
10
-1.700011
20
-2.353056
30
9.958974
11
-1.700011
21
-2.353056
31
10.041030
12
-1.561046
22
-2.371238
32
10.039050
13
-1.561046
23
-2.371238
33
10.039050
0
3DFACE
8
0
10
-1.561045
20
-2.371238
30
9.960955
11
-1.700011
21
-2.353056
31
9.958974
12
-1.561046
22
-2.371238
32
10.039050
13
-1.561046
23
-2.371238
33
10.039050
0
3DFACE
8
0
10
-1.700560
20
-2.394069
30
9.887901
11
-1.700011
21
-2.353056
31
9.958974
12
-1.561045
22
-2.371238
32
9.960955
13
-1.561045
23
-2.371238
33
9.960955
0
3DFACE
8
0
10
-1.573196
20
-2.409014
30
9.893283
11
-1.700560
21
-2.394069
31
9.887901
12
-1.561045
22
-2.371238
32
9.960955
13
-1.561045
23
-2.371238
33
9.960955
0
3DFACE
8
0
10
-1.701076
20
-2.465133
30
9.846841
11
-1.700560
21
-2.394069
31
9.887901
12
-1.573196
22
-2.409014
32
9.893283
13
-1.573196
23
-2.409014
33
9.893283
0
3DFACE
8
0
10
-1.591829
20
-2.474522
30
9.854110
11
-1.701076
21
-2.465133
31
9.846841
12
-1.573196
22
-2.409014
32
9.893283
13
-1.573196
23
-2.409014
33
9.893283
0
ENDSEC
0
EOF
